%YAML 1.1
%TAG !u! tag:unity3d.com,2011:
--- !u!29 &1
OcclusionCullingSettings:
  m_ObjectHideFlags: 0
  serializedVersion: 2
  m_OcclusionBakeSettings:
    smallestOccluder: 5
    smallestHole: 0.25
    backfaceThreshold: 100
  m_SceneGUID: 00000000000000000000000000000000
  m_OcclusionCullingData: {fileID: 0}
--- !u!104 &2
RenderSettings:
  m_ObjectHideFlags: 0
  serializedVersion: 9
  m_Fog: 0
  m_FogColor: {r: 0.5, g: 0.5, b: 0.5, a: 1}
  m_FogMode: 3
  m_FogDensity: 0.01
  m_LinearFogStart: 0
  m_LinearFogEnd: 300
  m_AmbientSkyColor: {r: 0.5514706, g: 0.5514706, b: 0.5514706, a: 1}
  m_AmbientEquatorColor: {r: 0.47794116, g: 0.46739835, b: 0.46739835, a: 1}
  m_AmbientGroundColor: {r: 0.47794116, g: 0.46739835, b: 0.46739835, a: 1}
  m_AmbientIntensity: 1
  m_AmbientMode: 0
  m_SubtractiveShadowColor: {r: 0.42, g: 0.478, b: 0.627, a: 1}
  m_SkyboxMaterial: {fileID: 10304, guid: 0000000000000000f000000000000000, type: 0}
  m_HaloStrength: 0.5
  m_FlareStrength: 1
  m_FlareFadeSpeed: 3
  m_HaloTexture: {fileID: 0}
  m_SpotCookie: {fileID: 10001, guid: 0000000000000000e000000000000000, type: 0}
  m_DefaultReflectionMode: 0
  m_DefaultReflectionResolution: 128
  m_ReflectionBounces: 1
  m_ReflectionIntensity: 1
  m_CustomReflection: {fileID: 0}
  m_Sun: {fileID: 0}
  m_IndirectSpecularColor: {r: 0, g: 0, b: 0, a: 1}
  m_UseRadianceAmbientProbe: 0
--- !u!157 &4
LightmapSettings:
  m_ObjectHideFlags: 0
  serializedVersion: 11
  m_GIWorkflowMode: 0
  m_GISettings:
    serializedVersion: 2
    m_BounceScale: 1
    m_IndirectOutputScale: 1
    m_AlbedoBoost: 1
    m_TemporalCoherenceThreshold: 1
    m_EnvironmentLightingMode: 0
    m_EnableBakedLightmaps: 0
    m_EnableRealtimeLightmaps: 1
  m_LightmapEditorSettings:
    serializedVersion: 10
    m_Resolution: 1
    m_BakeResolution: 50
    m_AtlasSize: 1024
    m_AO: 1
    m_AOMaxDistance: 1
    m_CompAOExponent: 1
    m_CompAOExponentDirect: 0
    m_Padding: 2
    m_LightmapParameters: {fileID: 0}
    m_LightmapsBakeMode: 1
    m_TextureCompression: 0
    m_FinalGather: 0
    m_FinalGatherFiltering: 1
    m_FinalGatherRayCount: 256
    m_ReflectionCompression: 2
    m_MixedBakeMode: 0
    m_BakeBackend: 0
    m_PVRSampling: 1
    m_PVRDirectSampleCount: 32
    m_PVRSampleCount: 500
    m_PVRBounces: 2
    m_PVRFilterTypeDirect: 0
    m_PVRFilterTypeIndirect: 0
    m_PVRFilterTypeAO: 0
    m_PVRFilteringMode: 1
    m_PVRCulling: 1
    m_PVRFilteringGaussRadiusDirect: 1
    m_PVRFilteringGaussRadiusIndirect: 5
    m_PVRFilteringGaussRadiusAO: 2
    m_PVRFilteringAtrousPositionSigmaDirect: 0.5
    m_PVRFilteringAtrousPositionSigmaIndirect: 2
    m_PVRFilteringAtrousPositionSigmaAO: 1
    m_ShowResolutionOverlay: 1
  m_LightingDataAsset: {fileID: 0}
  m_UseShadowmask: 0
--- !u!196 &5
NavMeshSettings:
  serializedVersion: 2
  m_ObjectHideFlags: 0
  m_BuildSettings:
    serializedVersion: 2
    agentTypeID: 0
    agentRadius: 0.5
    agentHeight: 2
    agentSlope: 45
    agentClimb: 0.4
    ledgeDropHeight: 0
    maxJumpAcrossDistance: 0
    minRegionArea: 2
    manualCellSize: 0
    cellSize: 0.16666666
    manualTileSize: 0
    tileSize: 256
    accuratePlacement: 0
    debug:
      m_Flags: 0
  m_NavMeshData: {fileID: 0}
--- !u!1 &45102157
GameObject:
  m_ObjectHideFlags: 0
  m_CorrespondingSourceObject: {fileID: 1665061361277390, guid: 0584839bceadb844fa31b1ca352056ba,
    type: 2}
  m_PrefabInternal: {fileID: 1978629799}
  serializedVersion: 6
  m_Component:
  - component: {fileID: 45102158}
  - component: {fileID: 45102159}
  m_Layer: 0
  m_Name: ' R Pelvis'
  m_TagString: Untagged
  m_Icon: {fileID: 0}
  m_NavMeshLayer: 0
  m_StaticEditorFlags: 0
  m_IsActive: 1
--- !u!4 &45102158
Transform:
  m_ObjectHideFlags: 0
  m_CorrespondingSourceObject: {fileID: 4502773247063328, guid: 0584839bceadb844fa31b1ca352056ba,
    type: 2}
  m_PrefabInternal: {fileID: 1978629799}
  m_GameObject: {fileID: 45102157}
  m_LocalRotation: {x: -0.7071068, y: 0, z: -0, w: 0.7071068}
  m_LocalPosition: {x: -0, y: 0, z: 0}
  m_LocalScale: {x: 1, y: 1, z: 1}
  m_Children: []
  m_Father: {fileID: 871697551}
  m_RootOrder: 4
  m_LocalEulerAnglesHint: {x: 0, y: 0, z: 0}
--- !u!137 &45102159
SkinnedMeshRenderer:
  m_ObjectHideFlags: 0
  m_CorrespondingSourceObject: {fileID: 137653450528938022, guid: 0584839bceadb844fa31b1ca352056ba,
    type: 2}
  m_PrefabInternal: {fileID: 1978629799}
  m_GameObject: {fileID: 45102157}
  m_Enabled: 1
  m_CastShadows: 1
  m_ReceiveShadows: 1
  m_DynamicOccludee: 1
  m_MotionVectors: 1
  m_LightProbeUsage: 1
  m_ReflectionProbeUsage: 1
  m_RenderingLayerMask: 4294967295
  m_Materials:
  - {fileID: 2100000, guid: 4bd180b051e2ca54ebfe82cf04ec20a6, type: 2}
  m_StaticBatchInfo:
    firstSubMesh: 0
    subMeshCount: 0
  m_StaticBatchRoot: {fileID: 0}
  m_ProbeAnchor: {fileID: 0}
  m_LightProbeVolumeOverride: {fileID: 0}
  m_ScaleInLightmap: 1
  m_PreserveUVs: 0
  m_IgnoreNormalsForChartDetection: 0
  m_ImportantGI: 0
  m_StitchLightmapSeams: 0
  m_SelectedEditorRenderState: 3
  m_MinimumChartSize: 4
  m_AutoUVMaxDistance: 0.5
  m_AutoUVMaxAngle: 89
  m_LightmapParameters: {fileID: 0}
  m_SortingLayerID: 0
  m_SortingLayer: 0
  m_SortingOrder: 0
  serializedVersion: 2
  m_Quality: 0
  m_UpdateWhenOffscreen: 0
  m_SkinnedMotionVectors: 1
  m_Mesh: {fileID: 4300014, guid: fe2eb0b4e90413643a3ddc78c368140f, type: 3}
  m_Bones:
  - {fileID: 1587601613}
  - {fileID: 932750690}
  - {fileID: 299459856}
  - {fileID: 1942268983}
  - {fileID: 1212508996}
  - {fileID: 633895510}
  m_BlendShapeWeights: []
  m_RootBone: {fileID: 1212508996}
  m_AABB:
    m_Center: {x: -0.0050251335, y: -0.079432935, z: 0.031810217}
    m_Extent: {x: 0.14492212, y: 0.11242977, z: 0.16120133}
  m_DirtyAABB: 0
--- !u!1 &62644292
GameObject:
  m_ObjectHideFlags: 0
  m_CorrespondingSourceObject: {fileID: 1446055194360854, guid: 0584839bceadb844fa31b1ca352056ba,
    type: 2}
  m_PrefabInternal: {fileID: 1978629799}
  serializedVersion: 6
  m_Component:
  - component: {fileID: 62644293}
  m_Layer: 0
  m_Name: Bip01 R Toe0
  m_TagString: Untagged
  m_Icon: {fileID: 0}
  m_NavMeshLayer: 0
  m_StaticEditorFlags: 0
  m_IsActive: 1
--- !u!4 &62644293
Transform:
  m_ObjectHideFlags: 0
  m_CorrespondingSourceObject: {fileID: 4190032063350480, guid: 0584839bceadb844fa31b1ca352056ba,
    type: 2}
  m_PrefabInternal: {fileID: 1978629799}
  m_GameObject: {fileID: 62644292}
  m_LocalRotation: {x: 0.000000015454313, y: -0.000000015454313, z: -0.7071068, w: 0.7071068}
  m_LocalPosition: {x: -0.09213435, y: 0.11857254, z: 0}
  m_LocalScale: {x: 1, y: 1, z: 1}
  m_Children: []
  m_Father: {fileID: 326059657}
  m_RootOrder: 0
  m_LocalEulerAnglesHint: {x: 0, y: 0, z: 0}
--- !u!1 &76221519
GameObject:
  m_ObjectHideFlags: 0
  m_CorrespondingSourceObject: {fileID: 1093936216438906, guid: 0584839bceadb844fa31b1ca352056ba,
    type: 2}
  m_PrefabInternal: {fileID: 1978629799}
  serializedVersion: 6
  m_Component:
  - component: {fileID: 76221520}
  m_Layer: 0
  m_Name: Bip01 L Calf
  m_TagString: Untagged
  m_Icon: {fileID: 0}
  m_NavMeshLayer: 0
  m_StaticEditorFlags: 0
  m_IsActive: 1
--- !u!4 &76221520
Transform:
  m_ObjectHideFlags: 0
  m_CorrespondingSourceObject: {fileID: 4603722628813860, guid: 0584839bceadb844fa31b1ca352056ba,
    type: 2}
  m_PrefabInternal: {fileID: 1978629799}
  m_GameObject: {fileID: 76221519}
  m_LocalRotation: {x: -0.0000000039786157, y: -0.000000007833632, z: 0.088544354,
    w: 0.99607223}
  m_LocalPosition: {x: -0.40058425, y: 0, z: 0}
  m_LocalScale: {x: 1.0000001, y: 1, z: 1}
  m_Children:
  - {fileID: 604916378}
  m_Father: {fileID: 1587601613}
  m_RootOrder: 0
  m_LocalEulerAnglesHint: {x: 0, y: 0, z: 0}
--- !u!1 &101279533
GameObject:
  m_ObjectHideFlags: 0
  m_CorrespondingSourceObject: {fileID: 1178258089089136, guid: 0584839bceadb844fa31b1ca352056ba,
    type: 2}
  m_PrefabInternal: {fileID: 1978629799}
  serializedVersion: 6
  m_Component:
  - component: {fileID: 101279534}
  - component: {fileID: 101279535}
  m_Layer: 0
  m_Name: L Calf
  m_TagString: Untagged
  m_Icon: {fileID: 0}
  m_NavMeshLayer: 0
  m_StaticEditorFlags: 0
  m_IsActive: 1
--- !u!4 &101279534
Transform:
  m_ObjectHideFlags: 0
  m_CorrespondingSourceObject: {fileID: 4904846061326490, guid: 0584839bceadb844fa31b1ca352056ba,
    type: 2}
  m_PrefabInternal: {fileID: 1978629799}
  m_GameObject: {fileID: 101279533}
  m_LocalRotation: {x: -0.7071068, y: 0, z: -0, w: 0.7071068}
  m_LocalPosition: {x: -0, y: 0, z: 0}
  m_LocalScale: {x: 1, y: 1, z: 1}
  m_Children: []
  m_Father: {fileID: 871697551}
  m_RootOrder: 7
  m_LocalEulerAnglesHint: {x: 0, y: 0, z: 0}
--- !u!137 &101279535
SkinnedMeshRenderer:
  m_ObjectHideFlags: 0
  m_CorrespondingSourceObject: {fileID: 137452182919886940, guid: 0584839bceadb844fa31b1ca352056ba,
    type: 2}
  m_PrefabInternal: {fileID: 1978629799}
  m_GameObject: {fileID: 101279533}
  m_Enabled: 1
  m_CastShadows: 1
  m_ReceiveShadows: 1
  m_DynamicOccludee: 1
  m_MotionVectors: 1
  m_LightProbeUsage: 1
  m_ReflectionProbeUsage: 1
  m_RenderingLayerMask: 4294967295
  m_Materials:
  - {fileID: 2100000, guid: 4bd180b051e2ca54ebfe82cf04ec20a6, type: 2}
  m_StaticBatchInfo:
    firstSubMesh: 0
    subMeshCount: 0
  m_StaticBatchRoot: {fileID: 0}
  m_ProbeAnchor: {fileID: 0}
  m_LightProbeVolumeOverride: {fileID: 0}
  m_ScaleInLightmap: 1
  m_PreserveUVs: 0
  m_IgnoreNormalsForChartDetection: 0
  m_ImportantGI: 0
  m_StitchLightmapSeams: 0
  m_SelectedEditorRenderState: 3
  m_MinimumChartSize: 4
  m_AutoUVMaxDistance: 0.5
  m_AutoUVMaxAngle: 89
  m_LightmapParameters: {fileID: 0}
  m_SortingLayerID: 0
  m_SortingLayer: 0
  m_SortingOrder: 0
  serializedVersion: 2
  m_Quality: 0
  m_UpdateWhenOffscreen: 0
  m_SkinnedMotionVectors: 1
  m_Mesh: {fileID: 4300008, guid: fe2eb0b4e90413643a3ddc78c368140f, type: 3}
  m_Bones:
  - {fileID: 76221520}
  - {fileID: 1587601613}
  - {fileID: 932750690}
  - {fileID: 604916378}
  - {fileID: 299459856}
  - {fileID: 1295785649}
  m_BlendShapeWeights: []
  m_RootBone: {fileID: 932750690}
  m_AABB:
    m_Center: {x: 0.5616, y: -0.0327539, z: 0.17362973}
    m_Extent: {x: 0.31074697, y: 0.15151276, z: 0.12816474}
  m_DirtyAABB: 0
--- !u!1 &108567386
GameObject:
  m_ObjectHideFlags: 0
  m_CorrespondingSourceObject: {fileID: 1525103234587934, guid: 0584839bceadb844fa31b1ca352056ba,
    type: 2}
  m_PrefabInternal: {fileID: 1978629799}
  serializedVersion: 6
  m_Component:
  - component: {fileID: 108567387}
  - component: {fileID: 108567388}
  m_Layer: 0
  m_Name: R Hand
  m_TagString: Untagged
  m_Icon: {fileID: 0}
  m_NavMeshLayer: 0
  m_StaticEditorFlags: 0
  m_IsActive: 1
--- !u!4 &108567387
Transform:
  m_ObjectHideFlags: 0
  m_CorrespondingSourceObject: {fileID: 4382187119034446, guid: 0584839bceadb844fa31b1ca352056ba,
    type: 2}
  m_PrefabInternal: {fileID: 1978629799}
  m_GameObject: {fileID: 108567386}
  m_LocalRotation: {x: -0.7071068, y: 0, z: -0, w: 0.7071068}
  m_LocalPosition: {x: -0, y: 0, z: 0}
  m_LocalScale: {x: 1, y: 1, z: 1}
  m_Children: []
  m_Father: {fileID: 871697551}
  m_RootOrder: 14
  m_LocalEulerAnglesHint: {x: 0, y: 0, z: 0}
--- !u!137 &108567388
SkinnedMeshRenderer:
  m_ObjectHideFlags: 0
  m_CorrespondingSourceObject: {fileID: 137039581699937316, guid: 0584839bceadb844fa31b1ca352056ba,
    type: 2}
  m_PrefabInternal: {fileID: 1978629799}
  m_GameObject: {fileID: 108567386}
  m_Enabled: 1
  m_CastShadows: 1
  m_ReceiveShadows: 1
  m_DynamicOccludee: 1
  m_MotionVectors: 1
  m_LightProbeUsage: 1
  m_ReflectionProbeUsage: 1
  m_RenderingLayerMask: 4294967295
  m_Materials:
  - {fileID: 2100000, guid: 4bd180b051e2ca54ebfe82cf04ec20a6, type: 2}
  m_StaticBatchInfo:
    firstSubMesh: 0
    subMeshCount: 0
  m_StaticBatchRoot: {fileID: 0}
  m_ProbeAnchor: {fileID: 0}
  m_LightProbeVolumeOverride: {fileID: 0}
  m_ScaleInLightmap: 1
  m_PreserveUVs: 0
  m_IgnoreNormalsForChartDetection: 0
  m_ImportantGI: 0
  m_StitchLightmapSeams: 0
  m_SelectedEditorRenderState: 3
  m_MinimumChartSize: 4
  m_AutoUVMaxDistance: 0.5
  m_AutoUVMaxAngle: 89
  m_LightmapParameters: {fileID: 0}
  m_SortingLayerID: 0
  m_SortingLayer: 0
  m_SortingOrder: 0
  serializedVersion: 2
  m_Quality: 0
  m_UpdateWhenOffscreen: 0
  m_SkinnedMotionVectors: 1
  m_Mesh: {fileID: 4300032, guid: fe2eb0b4e90413643a3ddc78c368140f, type: 3}
  m_Bones:
  - {fileID: 1432661106}
  - {fileID: 630635082}
  m_BlendShapeWeights: []
  m_RootBone: {fileID: 1432661106}
  m_AABB:
    m_Center: {x: -0.3015614, y: -0.0019324645, z: 0.05306163}
    m_Extent: {x: 0.14694151, y: 0.10307154, z: 0.11044496}
  m_DirtyAABB: 0
--- !u!1 &126161260
GameObject:
  m_ObjectHideFlags: 0
  m_CorrespondingSourceObject: {fileID: 1758437185071078, guid: 0584839bceadb844fa31b1ca352056ba,
    type: 2}
  m_PrefabInternal: {fileID: 1978629799}
  serializedVersion: 6
  m_Component:
  - component: {fileID: 126161261}
  m_Layer: 0
  m_Name: Bip01 L UpperArm
  m_TagString: Untagged
  m_Icon: {fileID: 0}
  m_NavMeshLayer: 0
  m_StaticEditorFlags: 0
  m_IsActive: 1
--- !u!4 &126161261
Transform:
  m_ObjectHideFlags: 0
  m_CorrespondingSourceObject: {fileID: 4827240890902198, guid: 0584839bceadb844fa31b1ca352056ba,
    type: 2}
  m_PrefabInternal: {fileID: 1978629799}
  m_GameObject: {fileID: 126161260}
  m_LocalRotation: {x: -0.12126951, y: -0.22002923, z: -0.107915044, w: 0.9618915}
  m_LocalPosition: {x: -0.15238847, y: 0.000000009536743, z: 0}
  m_LocalScale: {x: 1.0000001, y: 1, z: 1.0000001}
  m_Children:
  - {fileID: 1137108684}
  m_Father: {fileID: 1174847643}
  m_RootOrder: 0
  m_LocalEulerAnglesHint: {x: 0, y: 0, z: 0}
--- !u!1 &179815426
GameObject:
  m_ObjectHideFlags: 0
  m_CorrespondingSourceObject: {fileID: 1490804052102734, guid: 0584839bceadb844fa31b1ca352056ba,
    type: 2}
  m_PrefabInternal: {fileID: 1978629799}
  serializedVersion: 6
  m_Component:
  - component: {fileID: 179815427}
  m_Layer: 0
  m_Name: Bip01 Head
  m_TagString: Untagged
  m_Icon: {fileID: 0}
  m_NavMeshLayer: 0
  m_StaticEditorFlags: 0
  m_IsActive: 1
--- !u!4 &179815427
Transform:
  m_ObjectHideFlags: 0
  m_CorrespondingSourceObject: {fileID: 4712930021742370, guid: 0584839bceadb844fa31b1ca352056ba,
    type: 2}
  m_PrefabInternal: {fileID: 1978629799}
  m_GameObject: {fileID: 179815426}
  m_LocalRotation: {x: -4.9632846e-13, y: -0.0000009903237, z: 0.35705414, w: 0.9340837}
  m_LocalPosition: {x: -0.12610061, y: 0, z: 0}
  m_LocalScale: {x: 0.99999994, y: 1, z: 0.99999994}
  m_Children:
  - {fileID: 2117305778}
  m_Father: {fileID: 815676310}
  m_RootOrder: 0
  m_LocalEulerAnglesHint: {x: 0, y: 0, z: 0}
--- !u!1 &228119949
GameObject:
  m_ObjectHideFlags: 0
  m_CorrespondingSourceObject: {fileID: 1218460168306878, guid: 0584839bceadb844fa31b1ca352056ba,
    type: 2}
  m_PrefabInternal: {fileID: 1978629799}
  serializedVersion: 6
  m_Component:
  - component: {fileID: 228119950}
  - component: {fileID: 228119951}
  m_Layer: 0
  m_Name: L Hand
  m_TagString: Untagged
  m_Icon: {fileID: 0}
  m_NavMeshLayer: 0
  m_StaticEditorFlags: 0
  m_IsActive: 1
--- !u!4 &228119950
Transform:
  m_ObjectHideFlags: 0
  m_CorrespondingSourceObject: {fileID: 4654265710181534, guid: 0584839bceadb844fa31b1ca352056ba,
    type: 2}
  m_PrefabInternal: {fileID: 1978629799}
  m_GameObject: {fileID: 228119949}
  m_LocalRotation: {x: -0.7071068, y: 0, z: -0, w: 0.7071068}
  m_LocalPosition: {x: -0, y: 0, z: 0}
  m_LocalScale: {x: 1, y: 1, z: 1}
  m_Children: []
  m_Father: {fileID: 871697551}
  m_RootOrder: 8
  m_LocalEulerAnglesHint: {x: 0, y: 0, z: 0}
--- !u!137 &228119951
SkinnedMeshRenderer:
  m_ObjectHideFlags: 0
  m_CorrespondingSourceObject: {fileID: 137613078668911958, guid: 0584839bceadb844fa31b1ca352056ba,
    type: 2}
  m_PrefabInternal: {fileID: 1978629799}
  m_GameObject: {fileID: 228119949}
  m_Enabled: 1
  m_CastShadows: 1
  m_ReceiveShadows: 1
  m_DynamicOccludee: 1
  m_MotionVectors: 1
  m_LightProbeUsage: 1
  m_ReflectionProbeUsage: 1
  m_RenderingLayerMask: 4294967295
  m_Materials:
  - {fileID: 2100000, guid: 4bd180b051e2ca54ebfe82cf04ec20a6, type: 2}
  m_StaticBatchInfo:
    firstSubMesh: 0
    subMeshCount: 0
  m_StaticBatchRoot: {fileID: 0}
  m_ProbeAnchor: {fileID: 0}
  m_LightProbeVolumeOverride: {fileID: 0}
  m_ScaleInLightmap: 1
  m_PreserveUVs: 0
  m_IgnoreNormalsForChartDetection: 0
  m_ImportantGI: 0
  m_StitchLightmapSeams: 0
  m_SelectedEditorRenderState: 3
  m_MinimumChartSize: 4
  m_AutoUVMaxDistance: 0.5
  m_AutoUVMaxAngle: 89
  m_LightmapParameters: {fileID: 0}
  m_SortingLayerID: 0
  m_SortingLayer: 0
  m_SortingOrder: 0
  serializedVersion: 2
  m_Quality: 0
  m_UpdateWhenOffscreen: 0
  m_SkinnedMotionVectors: 1
  m_Mesh: {fileID: 4300006, guid: fe2eb0b4e90413643a3ddc78c368140f, type: 3}
  m_Bones:
  - {fileID: 1137108684}
  - {fileID: 1489766460}
  - {fileID: 126161261}
  m_BlendShapeWeights: []
  m_RootBone: {fileID: 126161261}
  m_AABB:
    m_Center: {x: -0.5705144, y: -0.17333402, z: -0.053062472}
    m_Extent: {x: 0.14890152, y: 0.11821227, z: 0.11044499}
  m_DirtyAABB: 0
--- !u!1 &258071890
GameObject:
  m_ObjectHideFlags: 0
  m_CorrespondingSourceObject: {fileID: 1622545415884722, guid: 0584839bceadb844fa31b1ca352056ba,
    type: 2}
  m_PrefabInternal: {fileID: 1978629799}
  serializedVersion: 6
  m_Component:
  - component: {fileID: 258071891}
  - component: {fileID: 258071892}
  m_Layer: 0
  m_Name: L Spine
  m_TagString: Untagged
  m_Icon: {fileID: 0}
  m_NavMeshLayer: 0
  m_StaticEditorFlags: 0
  m_IsActive: 1
--- !u!4 &258071891
Transform:
  m_ObjectHideFlags: 0
  m_CorrespondingSourceObject: {fileID: 4873225354995068, guid: 0584839bceadb844fa31b1ca352056ba,
    type: 2}
  m_PrefabInternal: {fileID: 1978629799}
  m_GameObject: {fileID: 258071890}
  m_LocalRotation: {x: -0.7071068, y: 0, z: -0, w: 0.7071068}
  m_LocalPosition: {x: -0, y: 0, z: 0}
  m_LocalScale: {x: 1, y: 1, z: 1}
  m_Children: []
  m_Father: {fileID: 871697551}
  m_RootOrder: 9
  m_LocalEulerAnglesHint: {x: 0, y: 0, z: 0}
--- !u!137 &258071892
SkinnedMeshRenderer:
  m_ObjectHideFlags: 0
  m_CorrespondingSourceObject: {fileID: 137608500834776058, guid: 0584839bceadb844fa31b1ca352056ba,
    type: 2}
  m_PrefabInternal: {fileID: 1978629799}
  m_GameObject: {fileID: 258071890}
  m_Enabled: 1
  m_CastShadows: 1
  m_ReceiveShadows: 1
  m_DynamicOccludee: 1
  m_MotionVectors: 1
  m_LightProbeUsage: 1
  m_ReflectionProbeUsage: 1
  m_RenderingLayerMask: 4294967295
  m_Materials:
  - {fileID: 2100000, guid: 4bd180b051e2ca54ebfe82cf04ec20a6, type: 2}
  m_StaticBatchInfo:
    firstSubMesh: 0
    subMeshCount: 0
  m_StaticBatchRoot: {fileID: 0}
  m_ProbeAnchor: {fileID: 0}
  m_LightProbeVolumeOverride: {fileID: 0}
  m_ScaleInLightmap: 1
  m_PreserveUVs: 0
  m_IgnoreNormalsForChartDetection: 0
  m_ImportantGI: 0
  m_StitchLightmapSeams: 0
  m_SelectedEditorRenderState: 3
  m_MinimumChartSize: 4
  m_AutoUVMaxDistance: 0.5
  m_AutoUVMaxAngle: 89
  m_LightmapParameters: {fileID: 0}
  m_SortingLayerID: 0
  m_SortingLayer: 0
  m_SortingOrder: 0
  serializedVersion: 2
  m_Quality: 0
  m_UpdateWhenOffscreen: 0
  m_SkinnedMotionVectors: 1
  m_Mesh: {fileID: 4300010, guid: fe2eb0b4e90413643a3ddc78c368140f, type: 3}
  m_Bones:
  - {fileID: 1942268983}
  - {fileID: 633895510}
  - {fileID: 932750690}
  - {fileID: 1587601613}
  - {fileID: 299459856}
  - {fileID: 537053877}
  - {fileID: 1174847643}
  - {fileID: 126161261}
  - {fileID: 1212508996}
  m_BlendShapeWeights: []
  m_RootBone: {fileID: 1212508996}
  m_AABB:
    m_Center: {x: 0.009963736, y: 0.04048611, z: 0.2867816}
    m_Extent: {x: 0.16895811, y: 0.11889446, z: 0.22239278}
  m_DirtyAABB: 0
--- !u!1 &277721543
GameObject:
  m_ObjectHideFlags: 0
  m_CorrespondingSourceObject: {fileID: 1074072323130556, guid: 0584839bceadb844fa31b1ca352056ba,
    type: 2}
  m_PrefabInternal: {fileID: 1978629799}
  serializedVersion: 6
  m_Component:
  - component: {fileID: 277721544}
  - component: {fileID: 277721545}
  m_Layer: 0
  m_Name: R Spine
  m_TagString: Untagged
  m_Icon: {fileID: 0}
  m_NavMeshLayer: 0
  m_StaticEditorFlags: 0
  m_IsActive: 1
--- !u!4 &277721544
Transform:
  m_ObjectHideFlags: 0
  m_CorrespondingSourceObject: {fileID: 4543446502415024, guid: 0584839bceadb844fa31b1ca352056ba,
    type: 2}
  m_PrefabInternal: {fileID: 1978629799}
  m_GameObject: {fileID: 277721543}
  m_LocalRotation: {x: -0.7071068, y: 0, z: -0, w: 0.7071068}
  m_LocalPosition: {x: -0, y: 0, z: 0}
  m_LocalScale: {x: 1, y: 1, z: 1}
  m_Children: []
  m_Father: {fileID: 871697551}
  m_RootOrder: 15
  m_LocalEulerAnglesHint: {x: 0, y: 0, z: 0}
--- !u!137 &277721545
SkinnedMeshRenderer:
  m_ObjectHideFlags: 0
  m_CorrespondingSourceObject: {fileID: 137858635011544706, guid: 0584839bceadb844fa31b1ca352056ba,
    type: 2}
  m_PrefabInternal: {fileID: 1978629799}
  m_GameObject: {fileID: 277721543}
  m_Enabled: 1
  m_CastShadows: 1
  m_ReceiveShadows: 1
  m_DynamicOccludee: 1
  m_MotionVectors: 1
  m_LightProbeUsage: 1
  m_ReflectionProbeUsage: 1
  m_RenderingLayerMask: 4294967295
  m_Materials:
  - {fileID: 2100000, guid: 4bd180b051e2ca54ebfe82cf04ec20a6, type: 2}
  m_StaticBatchInfo:
    firstSubMesh: 0
    subMeshCount: 0
  m_StaticBatchRoot: {fileID: 0}
  m_ProbeAnchor: {fileID: 0}
  m_LightProbeVolumeOverride: {fileID: 0}
  m_ScaleInLightmap: 1
  m_PreserveUVs: 0
  m_IgnoreNormalsForChartDetection: 0
  m_ImportantGI: 0
  m_StitchLightmapSeams: 0
  m_SelectedEditorRenderState: 3
  m_MinimumChartSize: 4
  m_AutoUVMaxDistance: 0.5
  m_AutoUVMaxAngle: 89
  m_LightmapParameters: {fileID: 0}
  m_SortingLayerID: 0
  m_SortingLayer: 0
  m_SortingOrder: 0
  serializedVersion: 2
  m_Quality: 0
  m_UpdateWhenOffscreen: 0
  m_SkinnedMotionVectors: 1
  m_Mesh: {fileID: 4300024, guid: fe2eb0b4e90413643a3ddc78c368140f, type: 3}
  m_Bones:
  - {fileID: 1942268983}
  - {fileID: 633895510}
  - {fileID: 932750690}
  - {fileID: 299459856}
  - {fileID: 1587601613}
  - {fileID: 1174847643}
  - {fileID: 537053877}
  - {fileID: 2038293464}
  - {fileID: 1212508996}
  m_BlendShapeWeights: []
  m_RootBone: {fileID: 1212508996}
  m_AABB:
    m_Center: {x: 0.010578424, y: -0.040485766, z: 0.2867816}
    m_Extent: {x: 0.16834362, y: 0.11889385, z: 0.22239278}
  m_DirtyAABB: 0
--- !u!1 &299459855
GameObject:
  m_ObjectHideFlags: 0
  m_CorrespondingSourceObject: {fileID: 1711214879339740, guid: 0584839bceadb844fa31b1ca352056ba,
    type: 2}
  m_PrefabInternal: {fileID: 1978629799}
  serializedVersion: 6
  m_Component:
  - component: {fileID: 299459856}
  m_Layer: 0
  m_Name: Bip01 R Thigh
  m_TagString: Untagged
  m_Icon: {fileID: 0}
  m_NavMeshLayer: 0
  m_StaticEditorFlags: 0
  m_IsActive: 1
--- !u!4 &299459856
Transform:
  m_ObjectHideFlags: 0
  m_CorrespondingSourceObject: {fileID: 4375635431441544, guid: 0584839bceadb844fa31b1ca352056ba,
    type: 2}
  m_PrefabInternal: {fileID: 1978629799}
  m_GameObject: {fileID: 299459855}
  m_LocalRotation: {x: 0.101984255, y: 0.99180675, z: 0.007670498, w: -0.07654973}
  m_LocalPosition: {x: 0.09034889, y: -0.017834948, z: -0.08011678}
  m_LocalScale: {x: 1, y: 1.0000001, z: 1.0000001}
  m_Children:
  - {fileID: 1670932401}
  m_Father: {fileID: 1942268983}
  m_RootOrder: 1
  m_LocalEulerAnglesHint: {x: 0, y: 0, z: 0}
--- !u!1 &326059656
GameObject:
  m_ObjectHideFlags: 0
  m_CorrespondingSourceObject: {fileID: 1211742291764976, guid: 0584839bceadb844fa31b1ca352056ba,
    type: 2}
  m_PrefabInternal: {fileID: 1978629799}
  serializedVersion: 6
  m_Component:
  - component: {fileID: 326059657}
  m_Layer: 0
  m_Name: Bip01 R Foot
  m_TagString: Untagged
  m_Icon: {fileID: 0}
  m_NavMeshLayer: 0
  m_StaticEditorFlags: 0
  m_IsActive: 1
--- !u!4 &326059657
Transform:
  m_ObjectHideFlags: 0
  m_CorrespondingSourceObject: {fileID: 4292820812853170, guid: 0584839bceadb844fa31b1ca352056ba,
    type: 2}
  m_PrefabInternal: {fileID: 1978629799}
  m_GameObject: {fileID: 326059656}
  m_LocalRotation: {x: 0.10165291, y: -0.08623447, z: -0.08321711, w: 0.9875754}
  m_LocalPosition: {x: -0.40058422, y: -0.000000009536743, z: 0}
  m_LocalScale: {x: 0.99999994, y: 0.9999999, z: 1}
  m_Children:
  - {fileID: 62644293}
  m_Father: {fileID: 1670932401}
  m_RootOrder: 0
  m_LocalEulerAnglesHint: {x: 0, y: 0, z: 0}
--- !u!1 &409506358
GameObject:
  m_ObjectHideFlags: 0
  m_CorrespondingSourceObject: {fileID: 1504637166610822, guid: 0584839bceadb844fa31b1ca352056ba,
    type: 2}
  m_PrefabInternal: {fileID: 1978629799}
  serializedVersion: 6
  m_Component:
  - component: {fileID: 409506359}
  - component: {fileID: 409506360}
  m_Layer: 0
  m_Name: ' L Forearm'
  m_TagString: Untagged
  m_Icon: {fileID: 0}
  m_NavMeshLayer: 0
  m_StaticEditorFlags: 0
  m_IsActive: 1
--- !u!4 &409506359
Transform:
  m_ObjectHideFlags: 0
  m_CorrespondingSourceObject: {fileID: 4201607048242562, guid: 0584839bceadb844fa31b1ca352056ba,
    type: 2}
  m_PrefabInternal: {fileID: 1978629799}
  m_GameObject: {fileID: 409506358}
  m_LocalRotation: {x: -0.7071068, y: 0, z: -0, w: 0.7071068}
  m_LocalPosition: {x: -0, y: 0, z: 0}
  m_LocalScale: {x: 1, y: 1, z: 1}
  m_Children: []
  m_Father: {fileID: 871697551}
  m_RootOrder: 1
  m_LocalEulerAnglesHint: {x: 0, y: 0, z: 0}
--- !u!137 &409506360
SkinnedMeshRenderer:
  m_ObjectHideFlags: 0
  m_CorrespondingSourceObject: {fileID: 137178184306640396, guid: 0584839bceadb844fa31b1ca352056ba,
    type: 2}
  m_PrefabInternal: {fileID: 1978629799}
  m_GameObject: {fileID: 409506358}
  m_Enabled: 1
  m_CastShadows: 1
  m_ReceiveShadows: 1
  m_DynamicOccludee: 1
  m_MotionVectors: 1
  m_LightProbeUsage: 1
  m_ReflectionProbeUsage: 1
  m_RenderingLayerMask: 4294967295
  m_Materials:
  - {fileID: 2100000, guid: 4bd180b051e2ca54ebfe82cf04ec20a6, type: 2}
  m_StaticBatchInfo:
    firstSubMesh: 0
    subMeshCount: 0
  m_StaticBatchRoot: {fileID: 0}
  m_ProbeAnchor: {fileID: 0}
  m_LightProbeVolumeOverride: {fileID: 0}
  m_ScaleInLightmap: 1
  m_PreserveUVs: 0
  m_IgnoreNormalsForChartDetection: 0
  m_ImportantGI: 0
  m_StitchLightmapSeams: 0
  m_SelectedEditorRenderState: 3
  m_MinimumChartSize: 4
  m_AutoUVMaxDistance: 0.5
  m_AutoUVMaxAngle: 89
  m_LightmapParameters: {fileID: 0}
  m_SortingLayerID: 0
  m_SortingLayer: 0
  m_SortingOrder: 0
  serializedVersion: 2
  m_Quality: 0
  m_UpdateWhenOffscreen: 0
  m_SkinnedMotionVectors: 1
  m_Mesh: {fileID: 4300000, guid: fe2eb0b4e90413643a3ddc78c368140f, type: 3}
  m_Bones:
  - {fileID: 1137108684}
  - {fileID: 126161261}
  - {fileID: 1942268983}
  - {fileID: 633895510}
  - {fileID: 1489766460}
  - {fileID: 1212508996}
  m_BlendShapeWeights: []
  m_RootBone: {fileID: 1212508996}
  m_AABB:
    m_Center: {x: 0.041451816, y: 0.47353816, z: 0.3538779}
    m_Extent: {x: 0.14636809, y: 0.19255386, z: 0.14603077}
  m_DirtyAABB: 0
--- !u!1 &460967722
GameObject:
  m_ObjectHideFlags: 0
  m_CorrespondingSourceObject: {fileID: 1631324403636872, guid: 0584839bceadb844fa31b1ca352056ba,
    type: 2}
  m_PrefabInternal: {fileID: 1978629799}
  serializedVersion: 6
  m_Component:
  - component: {fileID: 460967723}
  - component: {fileID: 460967724}
  m_Layer: 0
  m_Name: ' Head'
  m_TagString: Untagged
  m_Icon: {fileID: 0}
  m_NavMeshLayer: 0
  m_StaticEditorFlags: 0
  m_IsActive: 1
--- !u!4 &460967723
Transform:
  m_ObjectHideFlags: 0
  m_CorrespondingSourceObject: {fileID: 4465147877298448, guid: 0584839bceadb844fa31b1ca352056ba,
    type: 2}
  m_PrefabInternal: {fileID: 1978629799}
  m_GameObject: {fileID: 460967722}
  m_LocalRotation: {x: -0.7071068, y: 0, z: -0, w: 0.7071068}
  m_LocalPosition: {x: -0, y: 0, z: 0}
  m_LocalScale: {x: 1, y: 1, z: 1}
  m_Children: []
  m_Father: {fileID: 871697551}
  m_RootOrder: 0
  m_LocalEulerAnglesHint: {x: 0, y: 0, z: 0}
--- !u!137 &460967724
SkinnedMeshRenderer:
  m_ObjectHideFlags: 0
  m_CorrespondingSourceObject: {fileID: 137878835445097416, guid: 0584839bceadb844fa31b1ca352056ba,
    type: 2}
  m_PrefabInternal: {fileID: 1978629799}
  m_GameObject: {fileID: 460967722}
  m_Enabled: 1
  m_CastShadows: 1
  m_ReceiveShadows: 1
  m_DynamicOccludee: 1
  m_MotionVectors: 1
  m_LightProbeUsage: 1
  m_ReflectionProbeUsage: 1
  m_RenderingLayerMask: 4294967295
  m_Materials:
  - {fileID: 2100000, guid: 4bd180b051e2ca54ebfe82cf04ec20a6, type: 2}
  m_StaticBatchInfo:
    firstSubMesh: 0
    subMeshCount: 0
  m_StaticBatchRoot: {fileID: 0}
  m_ProbeAnchor: {fileID: 0}
  m_LightProbeVolumeOverride: {fileID: 0}
  m_ScaleInLightmap: 1
  m_PreserveUVs: 0
  m_IgnoreNormalsForChartDetection: 0
  m_ImportantGI: 0
  m_StitchLightmapSeams: 0
  m_SelectedEditorRenderState: 3
  m_MinimumChartSize: 4
  m_AutoUVMaxDistance: 0.5
  m_AutoUVMaxAngle: 89
  m_LightmapParameters: {fileID: 0}
  m_SortingLayerID: 0
  m_SortingLayer: 0
  m_SortingOrder: 0
  serializedVersion: 2
  m_Quality: 0
  m_UpdateWhenOffscreen: 0
  m_SkinnedMotionVectors: 1
  m_Mesh: {fileID: 4300004, guid: fe2eb0b4e90413643a3ddc78c368140f, type: 3}
  m_Bones:
  - {fileID: 179815427}
  - {fileID: 815676310}
  - {fileID: 633895510}
  - {fileID: 2117305778}
  - {fileID: 1174847643}
  - {fileID: 537053877}
  - {fileID: 126161261}
  - {fileID: 2038293464}
  m_BlendShapeWeights: []
  m_RootBone: {fileID: 633895510}
  m_AABB:
    m_Center: {x: -0.40291405, y: 0.10811783, z: 0.00000026077032}
    m_Extent: {x: 0.16522883, y: 0.13977434, z: 0.08768336}
  m_DirtyAABB: 0
--- !u!1 &537053876
GameObject:
  m_ObjectHideFlags: 0
  m_CorrespondingSourceObject: {fileID: 1467782292888138, guid: 0584839bceadb844fa31b1ca352056ba,
    type: 2}
  m_PrefabInternal: {fileID: 1978629799}
  serializedVersion: 6
  m_Component:
  - component: {fileID: 537053877}
  m_Layer: 0
  m_Name: Bip01 R Clavicle
  m_TagString: Untagged
  m_Icon: {fileID: 0}
  m_NavMeshLayer: 0
  m_StaticEditorFlags: 0
  m_IsActive: 1
--- !u!4 &537053877
Transform:
  m_ObjectHideFlags: 0
  m_CorrespondingSourceObject: {fileID: 4952675910428956, guid: 0584839bceadb844fa31b1ca352056ba,
    type: 2}
  m_PrefabInternal: {fileID: 1978629799}
  m_GameObject: {fileID: 537053876}
  m_LocalRotation: {x: 0.57403994, y: 0.2590004, z: 0.7080522, w: -0.3194668}
  m_LocalPosition: {x: -0, y: 0.00010047913, z: -0.02804082}
  m_LocalScale: {x: 1, y: 1, z: 1}
  m_Children:
  - {fileID: 2038293464}
  m_Father: {fileID: 815676310}
  m_RootOrder: 2
  m_LocalEulerAnglesHint: {x: 0, y: 0, z: 0}
--- !u!1 &565330580
GameObject:
  m_ObjectHideFlags: 0
  m_CorrespondingSourceObject: {fileID: 0}
  m_PrefabInternal: {fileID: 0}
  serializedVersion: 6
  m_Component:
  - component: {fileID: 565330585}
  - component: {fileID: 565330584}
  - component: {fileID: 565330583}
  - component: {fileID: 565330582}
  - component: {fileID: 565330581}
  m_Layer: 0
  m_Name: Main Camera
  m_TagString: MainCamera
  m_Icon: {fileID: 0}
  m_NavMeshLayer: 0
  m_StaticEditorFlags: 0
  m_IsActive: 1
--- !u!81 &565330581
AudioListener:
  m_ObjectHideFlags: 0
  m_CorrespondingSourceObject: {fileID: 0}
  m_PrefabInternal: {fileID: 0}
  m_GameObject: {fileID: 565330580}
  m_Enabled: 1
--- !u!124 &565330582
Behaviour:
  m_ObjectHideFlags: 0
  m_CorrespondingSourceObject: {fileID: 0}
  m_PrefabInternal: {fileID: 0}
  m_GameObject: {fileID: 565330580}
  m_Enabled: 1
--- !u!92 &565330583
Behaviour:
  m_ObjectHideFlags: 0
  m_CorrespondingSourceObject: {fileID: 0}
  m_PrefabInternal: {fileID: 0}
  m_GameObject: {fileID: 565330580}
  m_Enabled: 1
--- !u!20 &565330584
Camera:
  m_ObjectHideFlags: 0
  m_CorrespondingSourceObject: {fileID: 0}
  m_PrefabInternal: {fileID: 0}
  m_GameObject: {fileID: 565330580}
  m_Enabled: 1
  serializedVersion: 2
  m_ClearFlags: 1
  m_BackGroundColor: {r: 0.23464534, g: 0.5147059, b: 0.45676228, a: 0.019607844}
  m_projectionMatrixMode: 1
  m_SensorSize: {x: 36, y: 24}
  m_LensShift: {x: 0, y: 0}
  m_FocalLength: 50
  m_NormalizedViewPortRect:
    serializedVersion: 2
    x: 0
    y: 0
    width: 1
    height: 1
  near clip plane: 0.3
  far clip plane: 1000
  field of view: 60
  orthographic: 0
  orthographic size: 5
  m_Depth: -1
  m_CullingMask:
    serializedVersion: 2
    m_Bits: 4294967295
  m_RenderingPath: -1
  m_TargetTexture: {fileID: 0}
  m_TargetDisplay: 0
  m_TargetEye: 3
  m_HDR: 0
  m_AllowMSAA: 1
  m_AllowDynamicResolution: 0
  m_ForceIntoRT: 0
  m_OcclusionCulling: 1
  m_StereoConvergence: 10
  m_StereoSeparation: 0.022
--- !u!4 &565330585
Transform:
  m_ObjectHideFlags: 0
  m_CorrespondingSourceObject: {fileID: 0}
  m_PrefabInternal: {fileID: 0}
  m_GameObject: {fileID: 565330580}
  m_LocalRotation: {x: -0, y: -0.99999493, z: -0, w: 0.003187927}
  m_LocalPosition: {x: 0.04495798, y: 1.3143227, z: 2.685}
  m_LocalScale: {x: 1, y: 1, z: 1}
  m_Children: []
  m_Father: {fileID: 0}
  m_RootOrder: 0
  m_LocalEulerAnglesHint: {x: 0, y: 180.36499, z: 0}
--- !u!1 &604916377
GameObject:
  m_ObjectHideFlags: 0
  m_CorrespondingSourceObject: {fileID: 1123826001982254, guid: 0584839bceadb844fa31b1ca352056ba,
    type: 2}
  m_PrefabInternal: {fileID: 1978629799}
  serializedVersion: 6
  m_Component:
  - component: {fileID: 604916378}
  m_Layer: 0
  m_Name: Bip01 L Foot
  m_TagString: Untagged
  m_Icon: {fileID: 0}
  m_NavMeshLayer: 0
  m_StaticEditorFlags: 0
  m_IsActive: 1
--- !u!4 &604916378
Transform:
  m_ObjectHideFlags: 0
  m_CorrespondingSourceObject: {fileID: 4855158646736876, guid: 0584839bceadb844fa31b1ca352056ba,
    type: 2}
  m_PrefabInternal: {fileID: 1978629799}
  m_GameObject: {fileID: 604916377}
  m_LocalRotation: {x: -0.10165291, y: 0.08623438, z: -0.083217114, w: 0.9875755}
  m_LocalPosition: {x: -0.40058425, y: 0, z: 0}
  m_LocalScale: {x: 1, y: 0.99999994, z: 1}
  m_Children:
  - {fileID: 1295785649}
  m_Father: {fileID: 76221520}
  m_RootOrder: 0
  m_LocalEulerAnglesHint: {x: 0, y: 0, z: 0}
--- !u!1 &630635081
GameObject:
  m_ObjectHideFlags: 0
  m_CorrespondingSourceObject: {fileID: 1036958502221856, guid: 0584839bceadb844fa31b1ca352056ba,
    type: 2}
  m_PrefabInternal: {fileID: 1978629799}
  serializedVersion: 6
  m_Component:
  - component: {fileID: 630635082}
  m_Layer: 0
  m_Name: Bip01 R Hand
  m_TagString: Untagged
  m_Icon: {fileID: 0}
  m_NavMeshLayer: 0
  m_StaticEditorFlags: 0
  m_IsActive: 1
--- !u!4 &630635082
Transform:
  m_ObjectHideFlags: 0
  m_CorrespondingSourceObject: {fileID: 4733025387587166, guid: 0584839bceadb844fa31b1ca352056ba,
    type: 2}
  m_PrefabInternal: {fileID: 1978629799}
  m_GameObject: {fileID: 630635081}
  m_LocalRotation: {x: 0.6549012, y: 0.11037252, z: -0.26592615, w: 0.6987171}
  m_LocalPosition: {x: -0.24034995, y: -0.000000076293944, z: -0.000000076293944}
  m_LocalScale: {x: 1, y: 1, z: 1}
  m_Children: []
  m_Father: {fileID: 1432661106}
  m_RootOrder: 0
  m_LocalEulerAnglesHint: {x: 0, y: 0, z: 0}
--- !u!1 &633895509
GameObject:
  m_ObjectHideFlags: 0
  m_CorrespondingSourceObject: {fileID: 1105701325033784, guid: 0584839bceadb844fa31b1ca352056ba,
    type: 2}
  m_PrefabInternal: {fileID: 1978629799}
  serializedVersion: 6
  m_Component:
  - component: {fileID: 633895510}
  m_Layer: 0
  m_Name: Bip01 Spine1
  m_TagString: Untagged
  m_Icon: {fileID: 0}
  m_NavMeshLayer: 0
  m_StaticEditorFlags: 0
  m_IsActive: 1
--- !u!4 &633895510
Transform:
  m_ObjectHideFlags: 0
  m_CorrespondingSourceObject: {fileID: 4406697722486180, guid: 0584839bceadb844fa31b1ca352056ba,
    type: 2}
  m_PrefabInternal: {fileID: 1978629799}
  m_GameObject: {fileID: 633895509}
  m_LocalRotation: {x: -9.823442e-14, y: 0.00000015035671, z: -0.05420994, w: 0.9985296}
  m_LocalPosition: {x: -0.2695715, y: -0.00020002364, z: -5.54719e-10}
  m_LocalScale: {x: 1, y: 1, z: 1}
  m_Children:
  - {fileID: 815676310}
  m_Father: {fileID: 1942268983}
  m_RootOrder: 2
  m_LocalEulerAnglesHint: {x: 0, y: 0, z: 0}
--- !u!1 &749829856
GameObject:
  m_ObjectHideFlags: 0
  m_CorrespondingSourceObject: {fileID: 1893299787404896, guid: 0584839bceadb844fa31b1ca352056ba,
    type: 2}
  m_PrefabInternal: {fileID: 1978629799}
  serializedVersion: 6
  m_Component:
  - component: {fileID: 749829857}
  - component: {fileID: 749829858}
  m_Layer: 0
  m_Name: ' L Pelvis'
  m_TagString: Untagged
  m_Icon: {fileID: 0}
  m_NavMeshLayer: 0
  m_StaticEditorFlags: 0
  m_IsActive: 1
--- !u!4 &749829857
Transform:
  m_ObjectHideFlags: 0
  m_CorrespondingSourceObject: {fileID: 4558952869301714, guid: 0584839bceadb844fa31b1ca352056ba,
    type: 2}
  m_PrefabInternal: {fileID: 1978629799}
  m_GameObject: {fileID: 749829856}
  m_LocalRotation: {x: -0.7071068, y: 0, z: -0, w: 0.7071068}
  m_LocalPosition: {x: -0, y: 0, z: 0}
  m_LocalScale: {x: 1, y: 1, z: 1}
  m_Children: []
  m_Father: {fileID: 871697551}
  m_RootOrder: 2
  m_LocalEulerAnglesHint: {x: 0, y: 0, z: 0}
--- !u!137 &749829858
SkinnedMeshRenderer:
  m_ObjectHideFlags: 0
  m_CorrespondingSourceObject: {fileID: 137077180577352388, guid: 0584839bceadb844fa31b1ca352056ba,
    type: 2}
  m_PrefabInternal: {fileID: 1978629799}
  m_GameObject: {fileID: 749829856}
  m_Enabled: 1
  m_CastShadows: 1
  m_ReceiveShadows: 1
  m_DynamicOccludee: 1
  m_MotionVectors: 1
  m_LightProbeUsage: 1
  m_ReflectionProbeUsage: 1
  m_RenderingLayerMask: 4294967295
  m_Materials:
  - {fileID: 2100000, guid: 4bd180b051e2ca54ebfe82cf04ec20a6, type: 2}
  m_StaticBatchInfo:
    firstSubMesh: 0
    subMeshCount: 0
  m_StaticBatchRoot: {fileID: 0}
  m_ProbeAnchor: {fileID: 0}
  m_LightProbeVolumeOverride: {fileID: 0}
  m_ScaleInLightmap: 1
  m_PreserveUVs: 0
  m_IgnoreNormalsForChartDetection: 0
  m_ImportantGI: 0
  m_StitchLightmapSeams: 0
  m_SelectedEditorRenderState: 3
  m_MinimumChartSize: 4
  m_AutoUVMaxDistance: 0.5
  m_AutoUVMaxAngle: 89
  m_LightmapParameters: {fileID: 0}
  m_SortingLayerID: 0
  m_SortingLayer: 0
  m_SortingOrder: 0
  serializedVersion: 2
  m_Quality: 0
  m_UpdateWhenOffscreen: 0
  m_SkinnedMotionVectors: 1
  m_Mesh: {fileID: 4300022, guid: fe2eb0b4e90413643a3ddc78c368140f, type: 3}
  m_Bones:
  - {fileID: 1587601613}
  - {fileID: 932750690}
  - {fileID: 299459856}
  - {fileID: 1942268983}
  - {fileID: 126161261}
  - {fileID: 1212508996}
  - {fileID: 633895510}
  m_BlendShapeWeights: []
  m_RootBone: {fileID: 1212508996}
  m_AABB:
    m_Center: {x: 0.003456831, y: 0.07680747, z: 0.025609955}
    m_Extent: {x: 0.13643982, y: 0.11698, z: 0.1674015}
  m_DirtyAABB: 0
--- !u!1 &815375947
GameObject:
  m_ObjectHideFlags: 0
  m_CorrespondingSourceObject: {fileID: 1497435967520026, guid: 0584839bceadb844fa31b1ca352056ba,
    type: 2}
  m_PrefabInternal: {fileID: 1978629799}
  serializedVersion: 6
  m_Component:
  - component: {fileID: 815375948}
  - component: {fileID: 815375949}
  m_Layer: 0
  m_Name: R Forearm
  m_TagString: Untagged
  m_Icon: {fileID: 0}
  m_NavMeshLayer: 0
  m_StaticEditorFlags: 0
  m_IsActive: 1
--- !u!4 &815375948
Transform:
  m_ObjectHideFlags: 0
  m_CorrespondingSourceObject: {fileID: 4612102568402044, guid: 0584839bceadb844fa31b1ca352056ba,
    type: 2}
  m_PrefabInternal: {fileID: 1978629799}
  m_GameObject: {fileID: 815375947}
  m_LocalRotation: {x: -0.7071068, y: 0, z: -0, w: 0.7071068}
  m_LocalPosition: {x: -0, y: 0, z: 0}
  m_LocalScale: {x: 1, y: 1, z: 1}
  m_Children: []
  m_Father: {fileID: 871697551}
  m_RootOrder: 13
  m_LocalEulerAnglesHint: {x: 0, y: 0, z: 0}
--- !u!137 &815375949
SkinnedMeshRenderer:
  m_ObjectHideFlags: 0
  m_CorrespondingSourceObject: {fileID: 137402827517700904, guid: 0584839bceadb844fa31b1ca352056ba,
    type: 2}
  m_PrefabInternal: {fileID: 1978629799}
  m_GameObject: {fileID: 815375947}
  m_Enabled: 1
  m_CastShadows: 1
  m_ReceiveShadows: 1
  m_DynamicOccludee: 1
  m_MotionVectors: 1
  m_LightProbeUsage: 1
  m_ReflectionProbeUsage: 1
  m_RenderingLayerMask: 4294967295
  m_Materials:
  - {fileID: 2100000, guid: 4bd180b051e2ca54ebfe82cf04ec20a6, type: 2}
  m_StaticBatchInfo:
    firstSubMesh: 0
    subMeshCount: 0
  m_StaticBatchRoot: {fileID: 0}
  m_ProbeAnchor: {fileID: 0}
  m_LightProbeVolumeOverride: {fileID: 0}
  m_ScaleInLightmap: 1
  m_PreserveUVs: 0
  m_IgnoreNormalsForChartDetection: 0
  m_ImportantGI: 0
  m_StitchLightmapSeams: 0
  m_SelectedEditorRenderState: 3
  m_MinimumChartSize: 4
  m_AutoUVMaxDistance: 0.5
  m_AutoUVMaxAngle: 89
  m_LightmapParameters: {fileID: 0}
  m_SortingLayerID: 0
  m_SortingLayer: 0
  m_SortingOrder: 0
  serializedVersion: 2
  m_Quality: 0
  m_UpdateWhenOffscreen: 0
  m_SkinnedMotionVectors: 1
  m_Mesh: {fileID: 4300030, guid: fe2eb0b4e90413643a3ddc78c368140f, type: 3}
  m_Bones:
  - {fileID: 1432661106}
  - {fileID: 2038293464}
  - {fileID: 1942268983}
  - {fileID: 633895510}
  - {fileID: 630635082}
  m_BlendShapeWeights: []
  m_RootBone: {fileID: 1942268983}
  m_AABB:
    m_Center: {x: -0.26623687, y: -0.010918185, z: -0.47353753}
    m_Extent: {x: 0.14977261, y: 0.11890797, z: 0.19255403}
  m_DirtyAABB: 0
--- !u!1 &815676309
GameObject:
  m_ObjectHideFlags: 0
  m_CorrespondingSourceObject: {fileID: 1445255633615846, guid: 0584839bceadb844fa31b1ca352056ba,
    type: 2}
  m_PrefabInternal: {fileID: 1978629799}
  serializedVersion: 6
  m_Component:
  - component: {fileID: 815676310}
  m_Layer: 0
  m_Name: Bip01 Neck
  m_TagString: Untagged
  m_Icon: {fileID: 0}
  m_NavMeshLayer: 0
  m_StaticEditorFlags: 0
  m_IsActive: 1
--- !u!4 &815676310
Transform:
  m_ObjectHideFlags: 0
  m_CorrespondingSourceObject: {fileID: 4578689533793888, guid: 0584839bceadb844fa31b1ca352056ba,
    type: 2}
  m_PrefabInternal: {fileID: 1978629799}
  m_GameObject: {fileID: 815676309}
  m_LocalRotation: {x: 1.5262368e-14, y: 0.0000011396826, z: -0.41090375, w: 0.91167873}
  m_LocalPosition: {x: -0.25273368, y: -0.000066537854, z: -1.845001e-10}
  m_LocalScale: {x: 1, y: 1, z: 0.99999994}
  m_Children:
  - {fileID: 179815427}
  - {fileID: 1174847643}
  - {fileID: 537053877}
  m_Father: {fileID: 633895510}
  m_RootOrder: 0
  m_LocalEulerAnglesHint: {x: 0, y: 0, z: 0}
--- !u!1 &819427770
GameObject:
  m_ObjectHideFlags: 0
  m_CorrespondingSourceObject: {fileID: 1387413135740240, guid: 0584839bceadb844fa31b1ca352056ba,
    type: 2}
  m_PrefabInternal: {fileID: 1978629799}
  serializedVersion: 6
  m_Component:
  - component: {fileID: 819427771}
  - component: {fileID: 819427772}
  m_Layer: 0
  m_Name: L UpperArm
  m_TagString: Untagged
  m_Icon: {fileID: 0}
  m_NavMeshLayer: 0
  m_StaticEditorFlags: 0
  m_IsActive: 1
--- !u!4 &819427771
Transform:
  m_ObjectHideFlags: 0
  m_CorrespondingSourceObject: {fileID: 4753760753840866, guid: 0584839bceadb844fa31b1ca352056ba,
    type: 2}
  m_PrefabInternal: {fileID: 1978629799}
  m_GameObject: {fileID: 819427770}
  m_LocalRotation: {x: -0.7071068, y: 0, z: -0, w: 0.7071068}
  m_LocalPosition: {x: -0, y: 0, z: 0}
  m_LocalScale: {x: 1, y: 1, z: 1}
  m_Children: []
  m_Father: {fileID: 871697551}
  m_RootOrder: 11
  m_LocalEulerAnglesHint: {x: 0, y: 0, z: 0}
--- !u!137 &819427772
SkinnedMeshRenderer:
  m_ObjectHideFlags: 0
  m_CorrespondingSourceObject: {fileID: 137132326043765644, guid: 0584839bceadb844fa31b1ca352056ba,
    type: 2}
  m_PrefabInternal: {fileID: 1978629799}
  m_GameObject: {fileID: 819427770}
  m_Enabled: 1
  m_CastShadows: 1
  m_ReceiveShadows: 1
  m_DynamicOccludee: 1
  m_MotionVectors: 1
  m_LightProbeUsage: 1
  m_ReflectionProbeUsage: 1
  m_RenderingLayerMask: 4294967295
  m_Materials:
  - {fileID: 2100000, guid: 4bd180b051e2ca54ebfe82cf04ec20a6, type: 2}
  m_StaticBatchInfo:
    firstSubMesh: 0
    subMeshCount: 0
  m_StaticBatchRoot: {fileID: 0}
  m_ProbeAnchor: {fileID: 0}
  m_LightProbeVolumeOverride: {fileID: 0}
  m_ScaleInLightmap: 1
  m_PreserveUVs: 0
  m_IgnoreNormalsForChartDetection: 0
  m_ImportantGI: 0
  m_StitchLightmapSeams: 0
  m_SelectedEditorRenderState: 3
  m_MinimumChartSize: 4
  m_AutoUVMaxDistance: 0.5
  m_AutoUVMaxAngle: 89
  m_LightmapParameters: {fileID: 0}
  m_SortingLayerID: 0
  m_SortingLayer: 0
  m_SortingOrder: 0
  serializedVersion: 2
  m_Quality: 0
  m_UpdateWhenOffscreen: 0
  m_SkinnedMotionVectors: 1
  m_Mesh: {fileID: 4300002, guid: fe2eb0b4e90413643a3ddc78c368140f, type: 3}
  m_Bones:
  - {fileID: 1174847643}
  - {fileID: 126161261}
  - {fileID: 633895510}
  - {fileID: 1942268983}
  - {fileID: 1137108684}
  - {fileID: 179815427}
  - {fileID: 537053877}
  m_BlendShapeWeights: []
  m_RootBone: {fileID: 1942268983}
  m_AABB:
    m_Center: {x: -0.41069087, y: -0.012730151, z: 0.25587755}
    m_Extent: {x: 0.160916, y: 0.12947766, z: 0.19883826}
  m_DirtyAABB: 0
--- !u!1 &871697549
GameObject:
  m_ObjectHideFlags: 0
  m_CorrespondingSourceObject: {fileID: 1300611964618398, guid: 0584839bceadb844fa31b1ca352056ba,
    type: 2}
  m_PrefabInternal: {fileID: 1978629799}
  serializedVersion: 6
  m_Component:
  - component: {fileID: 871697551}
  - component: {fileID: 871697550}
  m_Layer: 0
  m_Name: Zombie
  m_TagString: Untagged
  m_Icon: {fileID: 0}
  m_NavMeshLayer: 0
  m_StaticEditorFlags: 0
  m_IsActive: 1
--- !u!95 &871697550
Animator:
  serializedVersion: 3
  m_ObjectHideFlags: 0
  m_CorrespondingSourceObject: {fileID: 95053064929079256, guid: 0584839bceadb844fa31b1ca352056ba,
    type: 2}
  m_PrefabInternal: {fileID: 1978629799}
  m_GameObject: {fileID: 871697549}
  m_Enabled: 1
  m_Avatar: {fileID: 9000000, guid: fe2eb0b4e90413643a3ddc78c368140f, type: 3}
  m_Controller: {fileID: 9100000, guid: e10558744504b244599302a4ca2e3be3, type: 2}
  m_CullingMode: 1
  m_UpdateMode: 0
  m_ApplyRootMotion: 1
  m_LinearVelocityBlending: 0
  m_WarningMessage: 
  m_HasTransformHierarchy: 1
  m_AllowConstantClipSamplingOptimization: 1
  m_KeepAnimatorControllerStateOnDisable: 0
--- !u!4 &871697551
Transform:
  m_ObjectHideFlags: 0
  m_CorrespondingSourceObject: {fileID: 4846736819855508, guid: 0584839bceadb844fa31b1ca352056ba,
    type: 2}
  m_PrefabInternal: {fileID: 1978629799}
  m_GameObject: {fileID: 871697549}
  m_LocalRotation: {x: 0, y: 0, z: 0, w: 1}
  m_LocalPosition: {x: 0, y: 0, z: 0}
  m_LocalScale: {x: 1, y: 1, z: 1}
  m_Children:
  - {fileID: 460967723}
  - {fileID: 409506359}
  - {fileID: 749829857}
  - {fileID: 1330453306}
  - {fileID: 45102158}
  - {fileID: 1229960277}
  - {fileID: 1212508996}
  - {fileID: 101279534}
  - {fileID: 228119950}
  - {fileID: 258071891}
  - {fileID: 1924634290}
  - {fileID: 819427771}
  - {fileID: 1294592594}
  - {fileID: 815375948}
  - {fileID: 108567387}
  - {fileID: 277721544}
  - {fileID: 1995532191}
  - {fileID: 1913045032}
  m_Father: {fileID: 0}
  m_RootOrder: 1
  m_LocalEulerAnglesHint: {x: 0, y: 0, z: 0}
--- !u!1 &932750689
GameObject:
  m_ObjectHideFlags: 0
  m_CorrespondingSourceObject: {fileID: 1732001255218256, guid: 0584839bceadb844fa31b1ca352056ba,
    type: 2}
  m_PrefabInternal: {fileID: 1978629799}
  serializedVersion: 6
  m_Component:
  - component: {fileID: 932750690}
  m_Layer: 0
  m_Name: Bip01 Pelvis
  m_TagString: Untagged
  m_Icon: {fileID: 0}
  m_NavMeshLayer: 0
  m_StaticEditorFlags: 0
  m_IsActive: 1
--- !u!4 &932750690
Transform:
  m_ObjectHideFlags: 0
  m_CorrespondingSourceObject: {fileID: 4808463715152680, guid: 0584839bceadb844fa31b1ca352056ba,
    type: 2}
  m_PrefabInternal: {fileID: 1978629799}
  m_GameObject: {fileID: 932750689}
  m_LocalRotation: {x: -0.5, y: 0.5, z: 0.49999934, w: 0.50000066}
  m_LocalPosition: {x: -0, y: 0, z: 0}
  m_LocalScale: {x: 1, y: 0.99999994, z: 0.99999994}
  m_Children:
  - {fileID: 1942268983}
  m_Father: {fileID: 1212508996}
  m_RootOrder: 0
  m_LocalEulerAnglesHint: {x: 0, y: 0, z: 0}
--- !u!1 &956433372
GameObject:
  m_ObjectHideFlags: 0
  m_CorrespondingSourceObject: {fileID: 0}
  m_PrefabInternal: {fileID: 0}
  serializedVersion: 6
  m_Component:
  - component: {fileID: 956433374}
  - component: {fileID: 956433373}
  m_Layer: 0
  m_Name: Light Probe Group
  m_TagString: Untagged
  m_Icon: {fileID: 0}
  m_NavMeshLayer: 0
  m_StaticEditorFlags: 0
  m_IsActive: 0
--- !u!220 &956433373
LightProbeGroup:
  m_ObjectHideFlags: 0
  m_CorrespondingSourceObject: {fileID: 0}
  m_PrefabInternal: {fileID: 0}
  m_GameObject: {fileID: 956433372}
  m_Enabled: 1
  m_SourcePositions:
  - {x: -3.2884068, y: 1, z: 2.7584093}
  - {x: -3.2884068, y: 1, z: 0.758409}
  - {x: -3.2884068, y: -1, z: 2.7584093}
  - {x: -3.2884068, y: -1, z: 0.758409}
  - {x: -5.2884064, y: 1, z: 2.7584093}
  - {x: -5.2884064, y: 1, z: 0.758409}
  - {x: -5.2884064, y: -1, z: 2.7584093}
  - {x: -5.2884064, y: -1, z: 0.758409}
  - {x: 1, y: 1, z: 2.7584093}
  - {x: 1, y: 1, z: 0.758409}
  - {x: 1, y: -1, z: 2.7584093}
  - {x: 1, y: -1, z: 0.758409}
  - {x: -1, y: 1, z: 2.7584093}
  - {x: -1, y: 1, z: 0.758409}
  - {x: -1, y: -1, z: 2.7584093}
  - {x: -1, y: -1, z: 0.758409}
  - {x: -3.2884068, y: 1, z: -1.877526}
  - {x: -3.2884068, y: 1, z: -3.8775263}
  - {x: -3.2884068, y: -1, z: -1.877526}
  - {x: -3.2884068, y: -1, z: -3.8775263}
  - {x: -5.2884064, y: 1, z: -1.877526}
  - {x: -5.2884064, y: 1, z: -3.8775263}
  - {x: -5.2884064, y: -1, z: -1.877526}
  - {x: -5.2884064, y: -1, z: -3.8775263}
  - {x: 1, y: 1, z: -1.877526}
  - {x: 1, y: 1, z: -3.8775263}
  - {x: 1, y: -1, z: -1.877526}
  - {x: 1, y: -1, z: -3.8775263}
  - {x: -1, y: 1, z: -1.877526}
  - {x: -1, y: 1, z: -3.8775263}
  - {x: -1, y: -1, z: -1.877526}
  - {x: -1, y: -1, z: -3.8775263}
--- !u!4 &956433374
Transform:
  m_ObjectHideFlags: 0
  m_CorrespondingSourceObject: {fileID: 0}
  m_PrefabInternal: {fileID: 0}
  m_GameObject: {fileID: 956433372}
  m_LocalRotation: {x: 0, y: 0, z: 0, w: 1}
  m_LocalPosition: {x: 2.231, y: 1.166, z: 0.17528558}
  m_LocalScale: {x: 1, y: 1, z: 1}
  m_Children: []
  m_Father: {fileID: 0}
  m_RootOrder: 4
  m_LocalEulerAnglesHint: {x: 0, y: 0, z: 0}
--- !u!1 &1137108683
GameObject:
  m_ObjectHideFlags: 0
  m_CorrespondingSourceObject: {fileID: 1398765393062244, guid: 0584839bceadb844fa31b1ca352056ba,
    type: 2}
  m_PrefabInternal: {fileID: 1978629799}
  serializedVersion: 6
  m_Component:
  - component: {fileID: 1137108684}
  m_Layer: 0
  m_Name: Bip01 L Forearm
  m_TagString: Untagged
  m_Icon: {fileID: 0}
  m_NavMeshLayer: 0
  m_StaticEditorFlags: 0
  m_IsActive: 1
--- !u!4 &1137108684
Transform:
  m_ObjectHideFlags: 0
  m_CorrespondingSourceObject: {fileID: 4509202025798804, guid: 0584839bceadb844fa31b1ca352056ba,
    type: 2}
  m_PrefabInternal: {fileID: 1978629799}
  m_GameObject: {fileID: 1137108683}
  m_LocalRotation: {x: 0.000000019830404, y: 0.000000037190215, z: 0.2912493, w: 0.9566472}
  m_LocalPosition: {x: -0.31570095, y: -0.000000038146972, z: 0}
  m_LocalScale: {x: 0.99999994, y: 0.99999994, z: 1}
  m_Children:
  - {fileID: 1489766460}
  m_Father: {fileID: 126161261}
  m_RootOrder: 0
  m_LocalEulerAnglesHint: {x: 0, y: 0, z: 0}
--- !u!1 &1174847642
GameObject:
  m_ObjectHideFlags: 0
  m_CorrespondingSourceObject: {fileID: 1753337363270356, guid: 0584839bceadb844fa31b1ca352056ba,
    type: 2}
  m_PrefabInternal: {fileID: 1978629799}
  serializedVersion: 6
  m_Component:
  - component: {fileID: 1174847643}
  m_Layer: 0
  m_Name: Bip01 L Clavicle
  m_TagString: Untagged
  m_Icon: {fileID: 0}
  m_NavMeshLayer: 0
  m_StaticEditorFlags: 0
  m_IsActive: 1
--- !u!4 &1174847643
Transform:
  m_ObjectHideFlags: 0
  m_CorrespondingSourceObject: {fileID: 4185239704286104, guid: 0584839bceadb844fa31b1ca352056ba,
    type: 2}
  m_PrefabInternal: {fileID: 1978629799}
  m_GameObject: {fileID: 1174847642}
  m_LocalRotation: {x: -0.57404083, y: -0.25900236, z: 0.70805144, w: -0.31946525}
  m_LocalPosition: {x: -0, y: 0.000100326535, z: 0.028040826}
  m_LocalScale: {x: 0.99999994, y: 1, z: 0.99999994}
  m_Children:
  - {fileID: 126161261}
  m_Father: {fileID: 815676310}
  m_RootOrder: 1
  m_LocalEulerAnglesHint: {x: 0, y: 0, z: 0}
--- !u!1 &1212508995
GameObject:
  m_ObjectHideFlags: 0
  m_CorrespondingSourceObject: {fileID: 1899757229922962, guid: 0584839bceadb844fa31b1ca352056ba,
    type: 2}
  m_PrefabInternal: {fileID: 1978629799}
  serializedVersion: 6
  m_Component:
  - component: {fileID: 1212508996}
  m_Layer: 0
  m_Name: Bip01
  m_TagString: Untagged
  m_Icon: {fileID: 0}
  m_NavMeshLayer: 0
  m_StaticEditorFlags: 0
  m_IsActive: 1
--- !u!4 &1212508996
Transform:
  m_ObjectHideFlags: 0
  m_CorrespondingSourceObject: {fileID: 4209205178343066, guid: 0584839bceadb844fa31b1ca352056ba,
    type: 2}
  m_PrefabInternal: {fileID: 1978629799}
  m_GameObject: {fileID: 1212508995}
  m_LocalRotation: {x: -0.50000036, y: 0.49999967, z: 0.49999967, w: 0.50000036}
  m_LocalPosition: {x: -0, y: 0.8729375, z: -0.0032746887}
  m_LocalScale: {x: 0.9999999, y: 0.9999999, z: 1}
  m_Children:
  - {fileID: 932750690}
  m_Father: {fileID: 871697551}
  m_RootOrder: 6
  m_LocalEulerAnglesHint: {x: 0, y: 0, z: 0}
--- !u!1 &1229960276
GameObject:
  m_ObjectHideFlags: 0
  m_CorrespondingSourceObject: {fileID: 1075110235505530, guid: 0584839bceadb844fa31b1ca352056ba,
    type: 2}
  m_PrefabInternal: {fileID: 1978629799}
  serializedVersion: 6
  m_Component:
  - component: {fileID: 1229960277}
  - component: {fileID: 1229960278}
  m_Layer: 0
  m_Name: ' R Thigh'
  m_TagString: Untagged
  m_Icon: {fileID: 0}
  m_NavMeshLayer: 0
  m_StaticEditorFlags: 0
  m_IsActive: 1
--- !u!4 &1229960277
Transform:
  m_ObjectHideFlags: 0
  m_CorrespondingSourceObject: {fileID: 4627564319832446, guid: 0584839bceadb844fa31b1ca352056ba,
    type: 2}
  m_PrefabInternal: {fileID: 1978629799}
  m_GameObject: {fileID: 1229960276}
  m_LocalRotation: {x: -0.7071068, y: 0, z: -0, w: 0.7071068}
  m_LocalPosition: {x: -0, y: 0, z: 0}
  m_LocalScale: {x: 1, y: 1, z: 1}
  m_Children: []
  m_Father: {fileID: 871697551}
  m_RootOrder: 5
  m_LocalEulerAnglesHint: {x: 0, y: 0, z: 0}
--- !u!137 &1229960278
SkinnedMeshRenderer:
  m_ObjectHideFlags: 0
  m_CorrespondingSourceObject: {fileID: 137807788981431422, guid: 0584839bceadb844fa31b1ca352056ba,
    type: 2}
  m_PrefabInternal: {fileID: 1978629799}
  m_GameObject: {fileID: 1229960276}
  m_Enabled: 1
  m_CastShadows: 1
  m_ReceiveShadows: 1
  m_DynamicOccludee: 1
  m_MotionVectors: 1
  m_LightProbeUsage: 1
  m_ReflectionProbeUsage: 1
  m_RenderingLayerMask: 4294967295
  m_Materials:
  - {fileID: 2100000, guid: 4bd180b051e2ca54ebfe82cf04ec20a6, type: 2}
  m_StaticBatchInfo:
    firstSubMesh: 0
    subMeshCount: 0
  m_StaticBatchRoot: {fileID: 0}
  m_ProbeAnchor: {fileID: 0}
  m_LightProbeVolumeOverride: {fileID: 0}
  m_ScaleInLightmap: 1
  m_PreserveUVs: 0
  m_IgnoreNormalsForChartDetection: 0
  m_ImportantGI: 0
  m_StitchLightmapSeams: 0
  m_SelectedEditorRenderState: 3
  m_MinimumChartSize: 4
  m_AutoUVMaxDistance: 0.5
  m_AutoUVMaxAngle: 89
  m_LightmapParameters: {fileID: 0}
  m_SortingLayerID: 0
  m_SortingLayer: 0
  m_SortingOrder: 0
  serializedVersion: 2
  m_Quality: 0
  m_UpdateWhenOffscreen: 0
  m_SkinnedMotionVectors: 1
  m_Mesh: {fileID: 4300018, guid: fe2eb0b4e90413643a3ddc78c368140f, type: 3}
  m_Bones:
  - {fileID: 932750690}
  - {fileID: 299459856}
  - {fileID: 1942268983}
  - {fileID: 1587601613}
  - {fileID: 1670932401}
  - {fileID: 1212508996}
  m_BlendShapeWeights: []
  m_RootBone: {fileID: 1212508996}
  m_AABB:
    m_Center: {x: -0.004833117, y: -0.12025787, z: -0.20244738}
    m_Extent: {x: 0.10976149, y: 0.122868046, z: 0.24149007}
  m_DirtyAABB: 0
--- !u!1 &1294592593
GameObject:
  m_ObjectHideFlags: 0
  m_CorrespondingSourceObject: {fileID: 1029473306467566, guid: 0584839bceadb844fa31b1ca352056ba,
    type: 2}
  m_PrefabInternal: {fileID: 1978629799}
  serializedVersion: 6
  m_Component:
  - component: {fileID: 1294592594}
  - component: {fileID: 1294592595}
  m_Layer: 0
  m_Name: R Calf
  m_TagString: Untagged
  m_Icon: {fileID: 0}
  m_NavMeshLayer: 0
  m_StaticEditorFlags: 0
  m_IsActive: 1
--- !u!4 &1294592594
Transform:
  m_ObjectHideFlags: 0
  m_CorrespondingSourceObject: {fileID: 4672325157288980, guid: 0584839bceadb844fa31b1ca352056ba,
    type: 2}
  m_PrefabInternal: {fileID: 1978629799}
  m_GameObject: {fileID: 1294592593}
  m_LocalRotation: {x: -0.7071068, y: 0, z: -0, w: 0.7071068}
  m_LocalPosition: {x: -0, y: 0, z: 0}
  m_LocalScale: {x: 1, y: 1, z: 1}
  m_Children: []
  m_Father: {fileID: 871697551}
  m_RootOrder: 12
  m_LocalEulerAnglesHint: {x: 0, y: 0, z: 0}
--- !u!137 &1294592595
SkinnedMeshRenderer:
  m_ObjectHideFlags: 0
  m_CorrespondingSourceObject: {fileID: 137140206553510882, guid: 0584839bceadb844fa31b1ca352056ba,
    type: 2}
  m_PrefabInternal: {fileID: 1978629799}
  m_GameObject: {fileID: 1294592593}
  m_Enabled: 1
  m_CastShadows: 1
  m_ReceiveShadows: 1
  m_DynamicOccludee: 1
  m_MotionVectors: 1
  m_LightProbeUsage: 1
  m_ReflectionProbeUsage: 1
  m_RenderingLayerMask: 4294967295
  m_Materials:
  - {fileID: 2100000, guid: 4bd180b051e2ca54ebfe82cf04ec20a6, type: 2}
  m_StaticBatchInfo:
    firstSubMesh: 0
    subMeshCount: 0
  m_StaticBatchRoot: {fileID: 0}
  m_ProbeAnchor: {fileID: 0}
  m_LightProbeVolumeOverride: {fileID: 0}
  m_ScaleInLightmap: 1
  m_PreserveUVs: 0
  m_IgnoreNormalsForChartDetection: 0
  m_ImportantGI: 0
  m_StitchLightmapSeams: 0
  m_SelectedEditorRenderState: 3
  m_MinimumChartSize: 4
  m_AutoUVMaxDistance: 0.5
  m_AutoUVMaxAngle: 89
  m_LightmapParameters: {fileID: 0}
  m_SortingLayerID: 0
  m_SortingLayer: 0
  m_SortingOrder: 0
  serializedVersion: 2
  m_Quality: 0
  m_UpdateWhenOffscreen: 0
  m_SkinnedMotionVectors: 1
  m_Mesh: {fileID: 4300020, guid: fe2eb0b4e90413643a3ddc78c368140f, type: 3}
  m_Bones:
  - {fileID: 1587601613}
  - {fileID: 1670932401}
  - {fileID: 299459856}
  - {fileID: 932750690}
  - {fileID: 326059657}
  - {fileID: 62644293}
  m_BlendShapeWeights: []
  m_RootBone: {fileID: 932750690}
  m_AABB:
    m_Center: {x: 0.56144977, y: -0.035665564, z: -0.17178778}
    m_Extent: {x: 0.31089664, y: 0.15442342, z: 0.12632255}
  m_DirtyAABB: 0
--- !u!1 &1295785648
GameObject:
  m_ObjectHideFlags: 0
  m_CorrespondingSourceObject: {fileID: 1612094400397754, guid: 0584839bceadb844fa31b1ca352056ba,
    type: 2}
  m_PrefabInternal: {fileID: 1978629799}
  serializedVersion: 6
  m_Component:
  - component: {fileID: 1295785649}
  m_Layer: 0
  m_Name: Bip01 L Toe0
  m_TagString: Untagged
  m_Icon: {fileID: 0}
  m_NavMeshLayer: 0
  m_StaticEditorFlags: 0
  m_IsActive: 1
--- !u!4 &1295785649
Transform:
  m_ObjectHideFlags: 0
  m_CorrespondingSourceObject: {fileID: 4537602508698250, guid: 0584839bceadb844fa31b1ca352056ba,
    type: 2}
  m_PrefabInternal: {fileID: 1978629799}
  m_GameObject: {fileID: 1295785648}
  m_LocalRotation: {x: -0.000000015454312, y: 0.000000015454312, z: -0.7071068, w: 0.7071068}
  m_LocalPosition: {x: -0.09213435, y: 0.118572555, z: 0}
  m_LocalScale: {x: 1, y: 1, z: 1}
  m_Children: []
  m_Father: {fileID: 604916378}
  m_RootOrder: 0
  m_LocalEulerAnglesHint: {x: 0, y: 0, z: 0}
--- !u!1 &1330453305
GameObject:
  m_ObjectHideFlags: 0
  m_CorrespondingSourceObject: {fileID: 1853176047475632, guid: 0584839bceadb844fa31b1ca352056ba,
    type: 2}
  m_PrefabInternal: {fileID: 1978629799}
  serializedVersion: 6
  m_Component:
  - component: {fileID: 1330453306}
  - component: {fileID: 1330453307}
  m_Layer: 0
  m_Name: ' L Thigh'
  m_TagString: Untagged
  m_Icon: {fileID: 0}
  m_NavMeshLayer: 0
  m_StaticEditorFlags: 0
  m_IsActive: 1
--- !u!4 &1330453306
Transform:
  m_ObjectHideFlags: 0
  m_CorrespondingSourceObject: {fileID: 4486055896242480, guid: 0584839bceadb844fa31b1ca352056ba,
    type: 2}
  m_PrefabInternal: {fileID: 1978629799}
  m_GameObject: {fileID: 1330453305}
  m_LocalRotation: {x: -0.7071068, y: 0, z: -0, w: 0.7071068}
  m_LocalPosition: {x: -0, y: 0, z: 0}
  m_LocalScale: {x: 1, y: 1, z: 1}
  m_Children: []
  m_Father: {fileID: 871697551}
  m_RootOrder: 3
  m_LocalEulerAnglesHint: {x: 0, y: 0, z: 0}
--- !u!137 &1330453307
SkinnedMeshRenderer:
  m_ObjectHideFlags: 0
  m_CorrespondingSourceObject: {fileID: 137238478014916058, guid: 0584839bceadb844fa31b1ca352056ba,
    type: 2}
  m_PrefabInternal: {fileID: 1978629799}
  m_GameObject: {fileID: 1330453305}
  m_Enabled: 1
  m_CastShadows: 1
  m_ReceiveShadows: 1
  m_DynamicOccludee: 1
  m_MotionVectors: 1
  m_LightProbeUsage: 1
  m_ReflectionProbeUsage: 1
  m_RenderingLayerMask: 4294967295
  m_Materials:
  - {fileID: 2100000, guid: 4bd180b051e2ca54ebfe82cf04ec20a6, type: 2}
  m_StaticBatchInfo:
    firstSubMesh: 0
    subMeshCount: 0
  m_StaticBatchRoot: {fileID: 0}
  m_ProbeAnchor: {fileID: 0}
  m_LightProbeVolumeOverride: {fileID: 0}
  m_ScaleInLightmap: 1
  m_PreserveUVs: 0
  m_IgnoreNormalsForChartDetection: 0
  m_ImportantGI: 0
  m_StitchLightmapSeams: 0
  m_SelectedEditorRenderState: 3
  m_MinimumChartSize: 4
  m_AutoUVMaxDistance: 0.5
  m_AutoUVMaxAngle: 89
  m_LightmapParameters: {fileID: 0}
  m_SortingLayerID: 0
  m_SortingLayer: 0
  m_SortingOrder: 0
  serializedVersion: 2
  m_Quality: 0
  m_UpdateWhenOffscreen: 0
  m_SkinnedMotionVectors: 1
  m_Mesh: {fileID: 4300016, guid: fe2eb0b4e90413643a3ddc78c368140f, type: 3}
  m_Bones:
  - {fileID: 1587601613}
  - {fileID: 932750690}
  - {fileID: 1942268983}
  - {fileID: 299459856}
  - {fileID: 76221520}
  - {fileID: 1212508996}
  m_BlendShapeWeights: []
  m_RootBone: {fileID: 1212508996}
  m_AABB:
    m_Center: {x: -0.0047156624, y: 0.11666237, z: -0.20246309}
    m_Extent: {x: 0.110179916, y: 0.12526919, z: 0.24441683}
  m_DirtyAABB: 0
--- !u!1 &1406201965
GameObject:
  m_ObjectHideFlags: 0
  m_CorrespondingSourceObject: {fileID: 0}
  m_PrefabInternal: {fileID: 0}
  serializedVersion: 6
  m_Component:
  - component: {fileID: 1406201969}
  - component: {fileID: 1406201968}
  - component: {fileID: 1406201967}
  - component: {fileID: 1406201966}
  m_Layer: 0
  m_Name: Plane
  m_TagString: Untagged
  m_Icon: {fileID: 0}
  m_NavMeshLayer: 0
  m_StaticEditorFlags: 4294967295
  m_IsActive: 1
--- !u!23 &1406201966
MeshRenderer:
  m_ObjectHideFlags: 0
  m_CorrespondingSourceObject: {fileID: 0}
  m_PrefabInternal: {fileID: 0}
  m_GameObject: {fileID: 1406201965}
  m_Enabled: 1
  m_CastShadows: 1
  m_ReceiveShadows: 1
  m_DynamicOccludee: 1
  m_MotionVectors: 1
  m_LightProbeUsage: 0
  m_ReflectionProbeUsage: 1
  m_RenderingLayerMask: 4294967295
  m_Materials:
  - {fileID: 2100000, guid: e7ed6772552b9e4488b1398f8282ed3b, type: 2}
  m_StaticBatchInfo:
    firstSubMesh: 0
    subMeshCount: 0
  m_StaticBatchRoot: {fileID: 0}
  m_ProbeAnchor: {fileID: 0}
  m_LightProbeVolumeOverride: {fileID: 0}
  m_ScaleInLightmap: 1
  m_PreserveUVs: 0
  m_IgnoreNormalsForChartDetection: 0
  m_ImportantGI: 0
  m_StitchLightmapSeams: 0
  m_SelectedEditorRenderState: 3
  m_MinimumChartSize: 4
  m_AutoUVMaxDistance: 0.5
  m_AutoUVMaxAngle: 89
  m_LightmapParameters: {fileID: 0}
  m_SortingLayerID: 0
  m_SortingLayer: 0
  m_SortingOrder: 0
--- !u!64 &1406201967
MeshCollider:
  m_ObjectHideFlags: 0
  m_CorrespondingSourceObject: {fileID: 0}
  m_PrefabInternal: {fileID: 0}
  m_GameObject: {fileID: 1406201965}
  m_Material: {fileID: 0}
  m_IsTrigger: 0
  m_Enabled: 1
  serializedVersion: 3
  m_Convex: 0
  m_CookingOptions: 14
  m_SkinWidth: 0.01
  m_Mesh: {fileID: 10209, guid: 0000000000000000e000000000000000, type: 0}
--- !u!33 &1406201968
MeshFilter:
  m_ObjectHideFlags: 0
  m_CorrespondingSourceObject: {fileID: 0}
  m_PrefabInternal: {fileID: 0}
  m_GameObject: {fileID: 1406201965}
  m_Mesh: {fileID: 10209, guid: 0000000000000000e000000000000000, type: 0}
--- !u!4 &1406201969
Transform:
  m_ObjectHideFlags: 0
  m_CorrespondingSourceObject: {fileID: 0}
  m_PrefabInternal: {fileID: 0}
  m_GameObject: {fileID: 1406201965}
  m_LocalRotation: {x: 0, y: 0, z: 0, w: 1}
  m_LocalPosition: {x: 0, y: 0, z: 0}
  m_LocalScale: {x: 1, y: 1, z: 1}
  m_Children: []
  m_Father: {fileID: 0}
  m_RootOrder: 2
  m_LocalEulerAnglesHint: {x: 0, y: 0, z: 0}
--- !u!1 &1432661105
GameObject:
  m_ObjectHideFlags: 0
  m_CorrespondingSourceObject: {fileID: 1823465484809292, guid: 0584839bceadb844fa31b1ca352056ba,
    type: 2}
  m_PrefabInternal: {fileID: 1978629799}
  serializedVersion: 6
  m_Component:
  - component: {fileID: 1432661106}
  m_Layer: 0
  m_Name: Bip01 R Forearm
  m_TagString: Untagged
  m_Icon: {fileID: 0}
  m_NavMeshLayer: 0
  m_StaticEditorFlags: 0
  m_IsActive: 1
--- !u!4 &1432661106
Transform:
  m_ObjectHideFlags: 0
  m_CorrespondingSourceObject: {fileID: 4930844856983438, guid: 0584839bceadb844fa31b1ca352056ba,
    type: 2}
  m_PrefabInternal: {fileID: 1978629799}
  m_GameObject: {fileID: 1432661105}
  m_LocalRotation: {x: -0.00000003408556, y: -0.000000041530168, z: 0.2912493, w: 0.9566472}
  m_LocalPosition: {x: -0.31570107, y: -0.000000038146972, z: 0}
  m_LocalScale: {x: 0.99999994, y: 1, z: 1}
  m_Children:
  - {fileID: 630635082}
  m_Father: {fileID: 2038293464}
  m_RootOrder: 0
  m_LocalEulerAnglesHint: {x: 0, y: 0, z: 0}
--- !u!1 &1489766459
GameObject:
  m_ObjectHideFlags: 0
  m_CorrespondingSourceObject: {fileID: 1342411359040796, guid: 0584839bceadb844fa31b1ca352056ba,
    type: 2}
  m_PrefabInternal: {fileID: 1978629799}
  serializedVersion: 6
  m_Component:
  - component: {fileID: 1489766460}
  m_Layer: 0
  m_Name: Bip01 L Hand
  m_TagString: Untagged
  m_Icon: {fileID: 0}
  m_NavMeshLayer: 0
  m_StaticEditorFlags: 0
  m_IsActive: 1
--- !u!4 &1489766460
Transform:
  m_ObjectHideFlags: 0
  m_CorrespondingSourceObject: {fileID: 4716609122578400, guid: 0584839bceadb844fa31b1ca352056ba,
    type: 2}
  m_PrefabInternal: {fileID: 1978629799}
  m_GameObject: {fileID: 1489766459}
  m_LocalRotation: {x: -0.6549012, y: -0.11037253, z: -0.2659261, w: 0.6987171}
  m_LocalPosition: {x: -0.24035, y: -0.000000038146972, z: 0.00000015258789}
  m_LocalScale: {x: 1.0000001, y: 1, z: 1.0000001}
  m_Children: []
  m_Father: {fileID: 1137108684}
  m_RootOrder: 0
  m_LocalEulerAnglesHint: {x: 0, y: 0, z: 0}
--- !u!1 &1587601612
GameObject:
  m_ObjectHideFlags: 0
  m_CorrespondingSourceObject: {fileID: 1063359577383002, guid: 0584839bceadb844fa31b1ca352056ba,
    type: 2}
  m_PrefabInternal: {fileID: 1978629799}
  serializedVersion: 6
  m_Component:
  - component: {fileID: 1587601613}
  m_Layer: 0
  m_Name: Bip01 L Thigh
  m_TagString: Untagged
  m_Icon: {fileID: 0}
  m_NavMeshLayer: 0
  m_StaticEditorFlags: 0
  m_IsActive: 1
--- !u!4 &1587601613
Transform:
  m_ObjectHideFlags: 0
  m_CorrespondingSourceObject: {fileID: 4752025865209894, guid: 0584839bceadb844fa31b1ca352056ba,
    type: 2}
  m_PrefabInternal: {fileID: 1978629799}
  m_GameObject: {fileID: 1587601612}
  m_LocalRotation: {x: 0.10198444, y: 0.99180675, z: -0.007667819, w: 0.07654933}
  m_LocalPosition: {x: 0.09034889, y: -0.017835407, z: 0.0801167}
  m_LocalScale: {x: 1, y: 1.0000001, z: 1}
  m_Children:
  - {fileID: 76221520}
  m_Father: {fileID: 1942268983}
  m_RootOrder: 0
  m_LocalEulerAnglesHint: {x: 0, y: 0, z: 0}
--- !u!1 &1670932400
GameObject:
  m_ObjectHideFlags: 0
  m_CorrespondingSourceObject: {fileID: 1472630854929082, guid: 0584839bceadb844fa31b1ca352056ba,
    type: 2}
  m_PrefabInternal: {fileID: 1978629799}
  serializedVersion: 6
  m_Component:
  - component: {fileID: 1670932401}
  m_Layer: 0
  m_Name: Bip01 R Calf
  m_TagString: Untagged
  m_Icon: {fileID: 0}
  m_NavMeshLayer: 0
  m_StaticEditorFlags: 0
  m_IsActive: 1
--- !u!4 &1670932401
Transform:
  m_ObjectHideFlags: 0
  m_CorrespondingSourceObject: {fileID: 4550765131983298, guid: 0584839bceadb844fa31b1ca352056ba,
    type: 2}
  m_PrefabInternal: {fileID: 1978629799}
  m_GameObject: {fileID: 1670932400}
  m_LocalRotation: {x: 0.0000000014635798, y: 0.000000015090022, z: 0.088544354, w: 0.99607223}
  m_LocalPosition: {x: -0.40058428, y: 0.0000000011920929, z: 0.000000019073486}
  m_LocalScale: {x: 1.0000001, y: 1.0000001, z: 1}
  m_Children:
  - {fileID: 326059657}
  m_Father: {fileID: 299459856}
  m_RootOrder: 0
  m_LocalEulerAnglesHint: {x: 0, y: 0, z: 0}
--- !u!1 &1913045031
GameObject:
  m_ObjectHideFlags: 0
  m_CorrespondingSourceObject: {fileID: 1770995092970126, guid: 0584839bceadb844fa31b1ca352056ba,
    type: 2}
  m_PrefabInternal: {fileID: 1978629799}
  serializedVersion: 6
  m_Component:
  - component: {fileID: 1913045032}
  - component: {fileID: 1913045033}
  m_Layer: 0
  m_Name: R UpperArm
  m_TagString: Untagged
  m_Icon: {fileID: 0}
  m_NavMeshLayer: 0
  m_StaticEditorFlags: 0
  m_IsActive: 1
--- !u!4 &1913045032
Transform:
  m_ObjectHideFlags: 0
  m_CorrespondingSourceObject: {fileID: 4824942938870906, guid: 0584839bceadb844fa31b1ca352056ba,
    type: 2}
  m_PrefabInternal: {fileID: 1978629799}
  m_GameObject: {fileID: 1913045031}
  m_LocalRotation: {x: -0.7071068, y: 0, z: -0, w: 0.7071068}
  m_LocalPosition: {x: -0, y: 0, z: 0}
  m_LocalScale: {x: 1, y: 1, z: 1}
  m_Children: []
  m_Father: {fileID: 871697551}
  m_RootOrder: 17
  m_LocalEulerAnglesHint: {x: 0, y: 0, z: 0}
--- !u!137 &1913045033
SkinnedMeshRenderer:
  m_ObjectHideFlags: 0
  m_CorrespondingSourceObject: {fileID: 137849490839640202, guid: 0584839bceadb844fa31b1ca352056ba,
    type: 2}
  m_PrefabInternal: {fileID: 1978629799}
  m_GameObject: {fileID: 1913045031}
  m_Enabled: 1
  m_CastShadows: 1
  m_ReceiveShadows: 1
  m_DynamicOccludee: 1
  m_MotionVectors: 1
  m_LightProbeUsage: 1
  m_ReflectionProbeUsage: 1
  m_RenderingLayerMask: 4294967295
  m_Materials:
  - {fileID: 2100000, guid: 4bd180b051e2ca54ebfe82cf04ec20a6, type: 2}
  m_StaticBatchInfo:
    firstSubMesh: 0
    subMeshCount: 0
  m_StaticBatchRoot: {fileID: 0}
  m_ProbeAnchor: {fileID: 0}
  m_LightProbeVolumeOverride: {fileID: 0}
  m_ScaleInLightmap: 1
  m_PreserveUVs: 0
  m_IgnoreNormalsForChartDetection: 0
  m_ImportantGI: 0
  m_StitchLightmapSeams: 0
  m_SelectedEditorRenderState: 3
  m_MinimumChartSize: 4
  m_AutoUVMaxDistance: 0.5
  m_AutoUVMaxAngle: 89
  m_LightmapParameters: {fileID: 0}
  m_SortingLayerID: 0
  m_SortingLayer: 0
  m_SortingOrder: 0
  serializedVersion: 2
  m_Quality: 0
  m_UpdateWhenOffscreen: 0
  m_SkinnedMotionVectors: 1
  m_Mesh: {fileID: 4300028, guid: fe2eb0b4e90413643a3ddc78c368140f, type: 3}
  m_Bones:
  - {fileID: 537053877}
  - {fileID: 2038293464}
  - {fileID: 633895510}
  - {fileID: 1942268983}
  - {fileID: 1432661106}
  - {fileID: 179815427}
  - {fileID: 1174847643}
  m_BlendShapeWeights: []
  m_RootBone: {fileID: 1942268983}
  m_AABB:
    m_Center: {x: -0.4028489, y: -0.015599415, z: -0.26588854}
    m_Extent: {x: 0.16875799, y: 0.13234702, z: 0.20884946}
  m_DirtyAABB: 0
--- !u!1 &1924634289
GameObject:
  m_ObjectHideFlags: 0
  m_CorrespondingSourceObject: {fileID: 1834815839377946, guid: 0584839bceadb844fa31b1ca352056ba,
    type: 2}
  m_PrefabInternal: {fileID: 1978629799}
  serializedVersion: 6
  m_Component:
  - component: {fileID: 1924634290}
  - component: {fileID: 1924634291}
  m_Layer: 0
  m_Name: L Spine1
  m_TagString: Untagged
  m_Icon: {fileID: 0}
  m_NavMeshLayer: 0
  m_StaticEditorFlags: 0
  m_IsActive: 1
--- !u!4 &1924634290
Transform:
  m_ObjectHideFlags: 0
  m_CorrespondingSourceObject: {fileID: 4544853956070004, guid: 0584839bceadb844fa31b1ca352056ba,
    type: 2}
  m_PrefabInternal: {fileID: 1978629799}
  m_GameObject: {fileID: 1924634289}
  m_LocalRotation: {x: -0.7071068, y: 0, z: -0, w: 0.7071068}
  m_LocalPosition: {x: -0.199, y: 0, z: 0}
  m_LocalScale: {x: 1, y: 1, z: 1}
  m_Children: []
  m_Father: {fileID: 871697551}
  m_RootOrder: 10
  m_LocalEulerAnglesHint: {x: 0, y: 0, z: 0}
--- !u!137 &1924634291
SkinnedMeshRenderer:
  m_ObjectHideFlags: 0
  m_CorrespondingSourceObject: {fileID: 137847887424583636, guid: 0584839bceadb844fa31b1ca352056ba,
    type: 2}
  m_PrefabInternal: {fileID: 1978629799}
  m_GameObject: {fileID: 1924634289}
  m_Enabled: 1
  m_CastShadows: 1
  m_ReceiveShadows: 1
  m_DynamicOccludee: 1
  m_MotionVectors: 1
  m_LightProbeUsage: 1
  m_ReflectionProbeUsage: 1
  m_RenderingLayerMask: 4294967295
  m_Materials:
  - {fileID: 2100000, guid: 4bd180b051e2ca54ebfe82cf04ec20a6, type: 2}
  m_StaticBatchInfo:
    firstSubMesh: 0
    subMeshCount: 0
  m_StaticBatchRoot: {fileID: 0}
  m_ProbeAnchor: {fileID: 0}
  m_LightProbeVolumeOverride: {fileID: 0}
  m_ScaleInLightmap: 1
  m_PreserveUVs: 0
  m_IgnoreNormalsForChartDetection: 0
  m_ImportantGI: 0
  m_StitchLightmapSeams: 0
  m_SelectedEditorRenderState: 3
  m_MinimumChartSize: 4
  m_AutoUVMaxDistance: 0.5
  m_AutoUVMaxAngle: 89
  m_LightmapParameters: {fileID: 0}
  m_SortingLayerID: 0
  m_SortingLayer: 0
  m_SortingOrder: 0
  serializedVersion: 2
  m_Quality: 0
  m_UpdateWhenOffscreen: 0
  m_SkinnedMotionVectors: 1
  m_Mesh: {fileID: 4300012, guid: fe2eb0b4e90413643a3ddc78c368140f, type: 3}
  m_Bones:
  - {fileID: 179815427}
  - {fileID: 1174847643}
  - {fileID: 815676310}
  - {fileID: 537053877}
  - {fileID: 633895510}
  - {fileID: 2117305778}
  - {fileID: 126161261}
  - {fileID: 1942268983}
  - {fileID: 2038293464}
  m_BlendShapeWeights: []
  m_RootBone: {fileID: 1942268983}
  m_AABB:
    m_Center: {x: -0.4200532, y: 0.031661347, z: 0.04192227}
    m_Extent: {x: 0.22127739, y: 0.1596856, z: 0.2592042}
  m_DirtyAABB: 0
--- !u!1 &1942268982
GameObject:
  m_ObjectHideFlags: 0
  m_CorrespondingSourceObject: {fileID: 1708488552866290, guid: 0584839bceadb844fa31b1ca352056ba,
    type: 2}
  m_PrefabInternal: {fileID: 1978629799}
  serializedVersion: 6
  m_Component:
  - component: {fileID: 1942268983}
  m_Layer: 0
  m_Name: Bip01 Spine
  m_TagString: Untagged
  m_Icon: {fileID: 0}
  m_NavMeshLayer: 0
  m_StaticEditorFlags: 0
  m_IsActive: 1
--- !u!4 &1942268983
Transform:
  m_ObjectHideFlags: 0
  m_CorrespondingSourceObject: {fileID: 4463608297701246, guid: 0584839bceadb844fa31b1ca352056ba,
    type: 2}
  m_PrefabInternal: {fileID: 1978629799}
  m_GameObject: {fileID: 1942268982}
  m_LocalRotation: {x: -0.0000020018456, y: 0.00000062178015, z: 0.09843173, w: 0.99514383}
  m_LocalPosition: {x: -0.09209221, y: -0.00021041452, z: 0.00000012800527}
  m_LocalScale: {x: 1, y: 0.99999994, z: 0.99999994}
  m_Children:
  - {fileID: 1587601613}
  - {fileID: 299459856}
  - {fileID: 633895510}
  m_Father: {fileID: 932750690}
  m_RootOrder: 0
  m_LocalEulerAnglesHint: {x: 0, y: 0, z: 0}
--- !u!1001 &1978629799
Prefab:
  m_ObjectHideFlags: 0
  serializedVersion: 2
  m_Modification:
    m_TransformParent: {fileID: 0}
    m_Modifications:
    - target: {fileID: 4846736819855508, guid: 0584839bceadb844fa31b1ca352056ba, type: 2}
      propertyPath: m_LocalPosition.x
      value: 0
      objectReference: {fileID: 0}
    - target: {fileID: 4846736819855508, guid: 0584839bceadb844fa31b1ca352056ba, type: 2}
      propertyPath: m_LocalPosition.y
      value: 0
      objectReference: {fileID: 0}
    - target: {fileID: 4846736819855508, guid: 0584839bceadb844fa31b1ca352056ba, type: 2}
      propertyPath: m_LocalPosition.z
      value: 0
      objectReference: {fileID: 0}
    - target: {fileID: 4846736819855508, guid: 0584839bceadb844fa31b1ca352056ba, type: 2}
      propertyPath: m_LocalRotation.x
      value: 0
      objectReference: {fileID: 0}
    - target: {fileID: 4846736819855508, guid: 0584839bceadb844fa31b1ca352056ba, type: 2}
      propertyPath: m_LocalRotation.y
      value: 0
      objectReference: {fileID: 0}
    - target: {fileID: 4846736819855508, guid: 0584839bceadb844fa31b1ca352056ba, type: 2}
      propertyPath: m_LocalRotation.z
      value: 0
      objectReference: {fileID: 0}
    - target: {fileID: 4846736819855508, guid: 0584839bceadb844fa31b1ca352056ba, type: 2}
      propertyPath: m_LocalRotation.w
      value: 1
      objectReference: {fileID: 0}
    - target: {fileID: 4846736819855508, guid: 0584839bceadb844fa31b1ca352056ba, type: 2}
      propertyPath: m_RootOrder
      value: 1
      objectReference: {fileID: 0}
    - target: {fileID: 4544853956070004, guid: 0584839bceadb844fa31b1ca352056ba, type: 2}
      propertyPath: m_LocalPosition.x
      value: -0.199
      objectReference: {fileID: 0}
    - target: {fileID: 1834815839377946, guid: 0584839bceadb844fa31b1ca352056ba, type: 2}
      propertyPath: m_IsActive
      value: 1
      objectReference: {fileID: 0}
    - target: {fileID: 1281367470461582, guid: 0584839bceadb844fa31b1ca352056ba, type: 2}
      propertyPath: m_IsActive
      value: 1
      objectReference: {fileID: 0}
    - target: {fileID: 1525103234587934, guid: 0584839bceadb844fa31b1ca352056ba, type: 2}
      propertyPath: m_IsActive
      value: 1
      objectReference: {fileID: 0}
    - target: {fileID: 1387413135740240, guid: 0584839bceadb844fa31b1ca352056ba, type: 2}
      propertyPath: m_IsActive
      value: 1
      objectReference: {fileID: 0}
    - target: {fileID: 1853176047475632, guid: 0584839bceadb844fa31b1ca352056ba, type: 2}
      propertyPath: m_IsActive
      value: 1
      objectReference: {fileID: 0}
    - target: {fileID: 1631324403636872, guid: 0584839bceadb844fa31b1ca352056ba, type: 2}
      propertyPath: m_IsActive
      value: 1
      objectReference: {fileID: 0}
    - target: {fileID: 1029473306467566, guid: 0584839bceadb844fa31b1ca352056ba, type: 2}
      propertyPath: m_IsActive
      value: 1
      objectReference: {fileID: 0}
    - target: {fileID: 1074072323130556, guid: 0584839bceadb844fa31b1ca352056ba, type: 2}
      propertyPath: m_IsActive
      value: 1
      objectReference: {fileID: 0}
    - target: {fileID: 1300611964618398, guid: 0584839bceadb844fa31b1ca352056ba, type: 2}
      propertyPath: m_IsActive
      value: 1
      objectReference: {fileID: 0}
    - target: {fileID: 1497435967520026, guid: 0584839bceadb844fa31b1ca352056ba, type: 2}
      propertyPath: m_IsActive
      value: 1
      objectReference: {fileID: 0}
    m_RemovedComponents: []
  m_SourcePrefab: {fileID: 100100000, guid: 0584839bceadb844fa31b1ca352056ba, type: 2}
  m_RootGameObject: {fileID: 871697549}
  m_IsPrefabAsset: 0
--- !u!1 &1995532190
GameObject:
  m_ObjectHideFlags: 0
  m_CorrespondingSourceObject: {fileID: 1281367470461582, guid: 0584839bceadb844fa31b1ca352056ba,
    type: 2}
  m_PrefabInternal: {fileID: 1978629799}
  serializedVersion: 6
  m_Component:
  - component: {fileID: 1995532191}
  - component: {fileID: 1995532192}
  m_Layer: 0
  m_Name: R Spine1
  m_TagString: Untagged
  m_Icon: {fileID: 0}
  m_NavMeshLayer: 0
  m_StaticEditorFlags: 0
  m_IsActive: 1
--- !u!4 &1995532191
Transform:
  m_ObjectHideFlags: 0
  m_CorrespondingSourceObject: {fileID: 4159152105943904, guid: 0584839bceadb844fa31b1ca352056ba,
    type: 2}
  m_PrefabInternal: {fileID: 1978629799}
  m_GameObject: {fileID: 1995532190}
  m_LocalRotation: {x: -0.7071068, y: 0, z: -0, w: 0.7071068}
  m_LocalPosition: {x: -0, y: 0, z: 0}
  m_LocalScale: {x: 1, y: 1, z: 1}
  m_Children: []
  m_Father: {fileID: 871697551}
  m_RootOrder: 16
  m_LocalEulerAnglesHint: {x: 0, y: 0, z: 0}
--- !u!137 &1995532192
SkinnedMeshRenderer:
  m_ObjectHideFlags: 0
  m_CorrespondingSourceObject: {fileID: 137832918962932494, guid: 0584839bceadb844fa31b1ca352056ba,
    type: 2}
  m_PrefabInternal: {fileID: 1978629799}
  m_GameObject: {fileID: 1995532190}
  m_Enabled: 1
  m_CastShadows: 1
  m_ReceiveShadows: 1
  m_DynamicOccludee: 1
  m_MotionVectors: 1
  m_LightProbeUsage: 1
  m_ReflectionProbeUsage: 1
  m_RenderingLayerMask: 4294967295
  m_Materials:
  - {fileID: 2100000, guid: 4bd180b051e2ca54ebfe82cf04ec20a6, type: 2}
  m_StaticBatchInfo:
    firstSubMesh: 0
    subMeshCount: 0
  m_StaticBatchRoot: {fileID: 0}
  m_ProbeAnchor: {fileID: 0}
  m_LightProbeVolumeOverride: {fileID: 0}
  m_ScaleInLightmap: 1
  m_PreserveUVs: 0
  m_IgnoreNormalsForChartDetection: 0
  m_ImportantGI: 0
  m_StitchLightmapSeams: 0
  m_SelectedEditorRenderState: 3
  m_MinimumChartSize: 4
  m_AutoUVMaxDistance: 0.5
  m_AutoUVMaxAngle: 89
  m_LightmapParameters: {fileID: 0}
  m_SortingLayerID: 0
  m_SortingLayer: 0
  m_SortingOrder: 0
  serializedVersion: 2
  m_Quality: 0
  m_UpdateWhenOffscreen: 0
  m_SkinnedMotionVectors: 1
  m_Mesh: {fileID: 4300026, guid: fe2eb0b4e90413643a3ddc78c368140f, type: 3}
  m_Bones:
  - {fileID: 179815427}
  - {fileID: 1174847643}
  - {fileID: 815676310}
  - {fileID: 537053877}
  - {fileID: 633895510}
  - {fileID: 2117305778}
  - {fileID: 2038293464}
  - {fileID: 1942268983}
  - {fileID: 126161261}
  m_BlendShapeWeights: []
  m_RootBone: {fileID: 1942268983}
  m_AABB:
    m_Center: {x: -0.42209792, y: 0.03413701, z: -0.04063773}
    m_Extent: {x: 0.22332203, y: 0.16127571, z: 0.2579201}
  m_DirtyAABB: 0
--- !u!1 &2014092402
GameObject:
  m_ObjectHideFlags: 0
  m_CorrespondingSourceObject: {fileID: 0}
  m_PrefabInternal: {fileID: 0}
  serializedVersion: 6
  m_Component:
  - component: {fileID: 2014092404}
  - component: {fileID: 2014092403}
  m_Layer: 0
  m_Name: Directional light
  m_TagString: Untagged
  m_Icon: {fileID: 0}
  m_NavMeshLayer: 0
  m_StaticEditorFlags: 0
  m_IsActive: 1
--- !u!108 &2014092403
Light:
  m_ObjectHideFlags: 0
  m_CorrespondingSourceObject: {fileID: 0}
  m_PrefabInternal: {fileID: 0}
  m_GameObject: {fileID: 2014092402}
  m_Enabled: 1
  serializedVersion: 8
  m_Type: 1
  m_Color: {r: 1, g: 0.98039216, b: 0.884, a: 1}
  m_Intensity: 1
  m_Range: 10
  m_SpotAngle: 30
  m_CookieSize: 10
  m_Shadows:
    m_Type: 2
    m_Resolution: -1
    m_CustomResolution: -1
    m_Strength: 1
    m_Bias: 0.05
    m_NormalBias: 0.4
    m_NearPlane: 0.2
  m_Cookie: {fileID: 0}
  m_DrawHalo: 0
  m_Flare: {fileID: 0}
  m_RenderMode: 0
  m_CullingMask:
    serializedVersion: 2
    m_Bits: 4294967295
  m_Lightmapping: 4
  m_LightShadowCasterMode: 0
  m_AreaSize: {x: 1, y: 1}
  m_BounceIntensity: 1
  m_ColorTemperature: 6570
  m_UseColorTemperature: 0
  m_ShadowRadius: 0
  m_ShadowAngle: 0
--- !u!4 &2014092404
Transform:
  m_ObjectHideFlags: 0
  m_CorrespondingSourceObject: {fileID: 0}
  m_PrefabInternal: {fileID: 0}
  m_GameObject: {fileID: 2014092402}
  m_LocalRotation: {x: 0.26679018, y: 0.8600695, z: -0.43443257, w: 0.019284818}
  m_LocalPosition: {x: -0.995, y: 2.7202275, z: 2.25}
  m_LocalScale: {x: 1, y: 1, z: 1}
  m_Children: []
  m_Father: {fileID: 0}
  m_RootOrder: 3
  m_LocalEulerAnglesHint: {x: 49.251003, y: 197.71599, z: 42.639004}
--- !u!1 &2038293463
GameObject:
  m_ObjectHideFlags: 0
  m_CorrespondingSourceObject: {fileID: 1422713045800670, guid: 0584839bceadb844fa31b1ca352056ba,
    type: 2}
  m_PrefabInternal: {fileID: 1978629799}
  serializedVersion: 6
  m_Component:
  - component: {fileID: 2038293464}
  m_Layer: 0
  m_Name: Bip01 R UpperArm
  m_TagString: Untagged
  m_Icon: {fileID: 0}
  m_NavMeshLayer: 0
  m_StaticEditorFlags: 0
  m_IsActive: 1
--- !u!4 &2038293464
Transform:
  m_ObjectHideFlags: 0
  m_CorrespondingSourceObject: {fileID: 4843309005437270, guid: 0584839bceadb844fa31b1ca352056ba,
    type: 2}
  m_PrefabInternal: {fileID: 1978629799}
  m_GameObject: {fileID: 2038293463}
  m_LocalRotation: {x: 0.1212695, y: 0.22002923, z: -0.107915044, w: 0.9618915}
  m_LocalPosition: {x: -0.15238845, y: 0.0000000047683715, z: 0}
  m_LocalScale: {x: 0.99999994, y: 0.9999999, z: 0.99999994}
  m_Children:
  - {fileID: 1432661106}
  m_Father: {fileID: 537053877}
  m_RootOrder: 0
  m_LocalEulerAnglesHint: {x: 0, y: 0, z: 0}
--- !u!1 &2117305777
GameObject:
  m_ObjectHideFlags: 0
  m_CorrespondingSourceObject: {fileID: 1702277664650646, guid: 0584839bceadb844fa31b1ca352056ba,
    type: 2}
  m_PrefabInternal: {fileID: 1978629799}
  serializedVersion: 6
  m_Component:
  - component: {fileID: 2117305778}
  m_Layer: 0
  m_Name: Bone01
  m_TagString: Untagged
  m_Icon: {fileID: 0}
  m_NavMeshLayer: 0
  m_StaticEditorFlags: 0
  m_IsActive: 1
--- !u!4 &2117305778
Transform:
  m_ObjectHideFlags: 0
  m_CorrespondingSourceObject: {fileID: 4730573664482244, guid: 0584839bceadb844fa31b1ca352056ba,
    type: 2}
  m_PrefabInternal: {fileID: 1978629799}
  m_GameObject: {fileID: 2117305777}
  m_LocalRotation: {x: -0.58497006, y: 0.8110549, z: 0.00000041840318, w: 0.0000005801117}
  m_LocalPosition: {x: -0.01947052, y: 0.027223773, z: 0}
  m_LocalScale: {x: 1.0000001, y: 1.0000001, z: 1.0000001}
  m_Children: []
  m_Father: {fileID: 179815427}
  m_RootOrder: 0
  m_LocalEulerAnglesHint: {x: 0, y: 0, z: 0}
